name,password,gender,email,result
JPbvOfgkV,iYvcgZRmPb6T,1,3,0
H9Z,4tr7r8NZz1sUok4,0,,0
1d5CQL,,0,3,0
wbSD,NtVAdwPpa39zZ,,zFbP@gmail.com,0
x,v3D2XQUK6GfrFLZ4D,0,u20ZByH@gmail.com,0
RDnZ0e2OSCn,JX8Il6aeHGY,ohpYoq0GHD7QcPu2V81,ZeAvbG@gmail.com,0
bTDTTM6,,BbMF6K,@gmail.com,0
nPwizcXj,U,0,ErXyKI@gmail.com,0
Po7ZGS,3XKARGzBK64aQEy,0,w4@gmail.com,1
oLzlOUG,edOJN4bCKhJmP89,,,0
0GDOHQ,HPOOT5aZc,0,O451@gmail.com,1
jCfGqXU,zKEEnT,0,GfqI1Lx@gmail.com,0
NaoP48nC,UMue8OBdtDhd1,1,MlMagvhg@gmail.com,1
gV21RusK4,kt2WzPp4nF6oRiTuK,1,,0
KMe9EsKKR,YujjeR4oqO,0,Taz3xCvU@gmail.com,1
XFtYnYXysMd,JrGu35bgT,1,@gmail.com,0
aYY1Nbexb,1EcyOSk0BaEzP,1,6U@gmail.com,1
q1VPPg3Xub,5e,1,57i@gmail.com,0
,6ZltYwKA,1,snjLF9gqR@gmail.com,0
LLeheHU8Ac,j8Bz0djws7K,0,oAz6@gmail.com,1
Kk8nbLk0,dmuIXTDlt3uso5,1,kYmtMhnmV@gmail.com,1
b8rXV,ah4ndVvv7Y3,0,czv6wG@gmail.com,1
wy1dcM,q5lWV502ruzv4,0,3,0
qAF8mKkqP,GM7ffXQC5DWS4jVp,1,9Ers5ax80@gmail.com,1
jq5yqWUn6SYX,y3PyhJdbZ,,G0@gmail.com,0
NuYgfF5I1s,DWa,0,f0@gmail.com,0
ONefzwZQ7,TgIqtSoi5p,0,c@gmail.com,1
20014084633,qTImlCuUlWT5rnEc1,1,tKDDRLO4@gmail.com,0
hhveFAx,FqMue2vj,0,b@gmail.com,1
,BF342i0uUC3DRw,0,@gmail.com,0
BkOd42M68,VpJ51hN6tc,0,@gmail.com,0
obg2SKcqTiu,SmBK9mE0m,1,S7URBX5R@gmail.com,1
pdSxYBG,4WHTHT3ByZsFgE,0,2,0
8b1o,r2uzWsk3i1tel4A6O,1,BrkNN@gmail.com,1
vZm8Z,gvmlJAIO,1,N@gmail.com,1
VIuVDyEoeRZ,,TzfScmKXIjboSQG37QN,5qsoNpz@gmail.com,0
QxYhYgtyFzhD,d5kmATOX5qh,Nv9ybD8sFJElMsjY0R,@gmail.com,0
BxZFW,60391675238,0,9rjuJ9M@gmail.com,0
JLpvQEbEy,FIVW6PuV,1,tkJkFns@gmail.com,1
ZuRa,yWAMXLp7MTC,2CIMYeVx,Wdy@gmail.com,0
2502053557,0OGvHXcs4iyd,1,@gmail.com,0
,w1f47dNRqG1ovMAOe,1,0i@gmail.com,0
wr9,iQ2WqsXvMHK3,1,K@gmail.com,1
QofoqVGvf,fJEMoQFmeq1,0,IoFMW@gmail.com,1
U,78483888033,1,jzdLJn@gmail.com,0
rkwECBPzJkUK,FH5FIMMz,1,mTVEi7@gmail.com,1
iT12bg5GvyBu,gQKoJxQdSYf9LhmUz,1,,0
YMCqfhH5R8j,Twlplv1D7zF,0,2,0
9Ru,AJkjMJyhQDsImD,1,,0
BENRHBpBkq,38Lfx77ezQyxC,1,BttrQqr@gmail.com,1
32RZslXQAi0z,OPwPtiS1rFOk7aRw,,wEWh@gmail.com,0
Ob1J0Vbhw7,,1,3,0
oOWV,yVsqG4tcfzS,0,vDg6ZWXc@gmail.com,1
Ax2cT7hwT,fpzSb3wIY3odt1N,0,CNSLsL@gmail.com,1
97269982339,sWj1CTvcMiid,1,EaOFVl@gmail.com,0
jFq3FoMmn,f5Tp5cYHAlM,0,,0
c1c3usAD,QRlydobTw9VbG,0,nhKHFoeS@gmail.com,1
fJtn0yLNQiTO,vS7HIAoHbcs,0,Ws1sHHg20@gmail.com,1
YnFQp,NQ8L4lhZGZHS7i,0,z@gmail.com,1
c94,XjDSoiBHfLAsA4o,0,vDa5NPVf@gmail.com,1
BTFjKbqEz,5p,1,kDO@gmail.com,0
eF,rO07cIA5T1E0iW,1,2,0
PXvP62246,q8TjffDklHz1QT,0,HaRw9c@gmail.com,1
,g4uc71KXAcW7ndecs,0,1eJcmbmO@gmail.com,0
yB7al2Jto,0vq05mF50LjSqf4h,0,rbq7@gmail.com,1
HjFy,QDvlheWN3gZSNx,0,3,0
pVaN,RNNjWe47iN4py,0,@gmail.com,0
iRCc5TH,FFYm7VRA4E,1,nJFkhgQ@gmail.com,1
6GKu93O9z,92449224977,1,@gmail.com,0
PWlc38ZWFTU,QdBXgfPT,1,9@gmail.com,1
zW7oHaBi,ipnZZd5YB,1,@gmail.com,0
eu0MhGpt,FYCv5XlxQ,1,GEge4w@gmail.com,1
QXmdt2pVa4kI,ty0ouWoS4aKKgysr,1,@gmail.com,0
FqZZp6O,AbNM7nOjS,0,3,0
eZ6S8O8CJB,WdacAuaKUJY,1,opcddx@gmail.com,1
Xu6Ayr32AvC4,eG68TTwmLub8Stu,0,AmzV@gmail.com,1
DOhuJIpaS,,0,5Gs093yfR@gmail.com,0
AzNNq6x,5HFjRpEUc,1,zRNR53b1L@gmail.com,1
LJX4KH,qXBJChdtM,0,VMV6K@gmail.com,1
4hWytzu,,1,2,0
SZtEokdP2WV,zLLLtI,0,3,0
,dzrFkL9u,0,@gmail.com,0
LMh,15659124247,,3ywnm3x@gmail.com,0
p0L0,A63O3ofLop,1,2,0
0k1RbICi,4080029619,1,LR7N01Z@gmail.com,0
4yqoDReTNG,57842323153,1,,0
tz04,AEbWzOwbe,1,0@gmail.com,1
FFYzfl,IVrx9edf44GwRX,0,eCsu@gmail.com,1
87003747128,naDi1ea8,1,@gmail.com,0
JH4yImIs1T,PwRoq,1,@gmail.com,0
1cEUggxvKtwX,qWZ18UUr,1,2,0
CcyOusC,3lXs5ZDuw0DC,0,LLzmo@gmail.com,1
71507255624,xNrVimuYd,0,at@gmail.com,0
iafQUE3cQ,6lsRWT6VLXY77m0,0,Aaf49wwe6@gmail.com,1
hjrda,97081288356,0,C3qHH@gmail.com,0
EoeuhCP5vPUY,JGOYhy1VK8EN,0,55JTuSMP@gmail.com,1
fW1g6jWrvbU,u,0,,0
jrz04iWc,,0,q8MV7k@gmail.com,0
LLqq,HPE2PekesThsmo5bv,1,YBy@gmail.com,1
OiikPD,,0,9dOBq9qEY@gmail.com,0
12228918124,BzM5bUD3IIUhj5LU8,,auN6m6xo@gmail.com,0
BTuwftDkNunj,Hse21zWbGcsJ,1,AUFhYO@gmail.com,1
3qdQ,nN6uw6rCF1,1,Exhev@gmail.com,1
,BzLbgnkzk0,,@gmail.com,0
ph,1wXBz8jFY5H,0,m4At6qs@gmail.com,0
,Mk43xkbNI7HSLD13,1,xNRnv4@gmail.com,0
DPg7MzEUe8W,pbppG5gQTXeZV,1,CB1UEJKE@gmail.com,1
Arfpifbdk,,1,SYSmC@gmail.com,0
2eMLD1ez2fi,yj8zuH5n,0,mY13MOm@gmail.com,1
KYgXRfszF2oV,0xye5qUc04un3Sw,0,osonxN59@gmail.com,1
t6JWjd,0vmMi924ay1hpe2,0,L3crgv5TR@gmail.com,1
DxJw0,,0,EdJ8A@gmail.com,0
ivZaCCenEPua,TPsOhjTQLik03,0,Xad@gmail.com,1
VsI29P,54204793087,1,fqC5YF@gmail.com,0
K8f3Z5Sz,0BVv18rn,0,tW4BuK@gmail.com,1
,1rZn6q4OA42f,0,atRb@gmail.com,0
tRmgkbDELe,QC4kZJr72n,1,@gmail.com,0
oCJ5Qesl8m,pOeIw5bKtV4A,1,,0
27200221708,3gIjpZ8V72,1,jhviyNaJd@gmail.com,0
Julg,S62mk7KMHuq,1,QbYFEMYUr@gmail.com,1
fMjEzXr1,s6G2C5Gdq9xEv,0,ulA@gmail.com,1
33GtCog,ioIKum,1,,0
JANHmyuDsuJ,3RQylQwJiaZ,0,pFC8RDlGc@gmail.com,1
65010290083,jgfyFO9nzj,0,,0
,ya443yRS,0,tn5CNLcF@gmail.com,0
kruNnEB13,ID4dgdVchEoKUYOP4,1,sUWupCq@gmail.com,1
HPiZ0shwpY,eRmqC23QzmxM,0,vK8BlFk@gmail.com,1
HWtcKqUmDAS7,UlWUJ185jx2cH,0,q@gmail.com,1
,BFceD0yyGkMWfgMw7,0,DEL2nn@gmail.com,0
i3OKRSwyBXG,3574706697,0,2,0
WNa,8wg76jyreoW1,0,ntI@gmail.com,1
T0jiyFp,,1,fxT22cT@gmail.com,0
5TcTzV,ChG4WcJzrUgo,1,iMQ1alUWF@gmail.com,1
bUB76abXHsgs,1WIZqa2l,1,@gmail.com,0
MXovq4NK,WuX6ULUNzCsqB,0,,0
quY1ZZJuIrn0,Os,0,,0
xGMjuYROq6m,,1,8oxlo1X@gmail.com,0
hsojWtK,klVXB6onl9hyi,GORDQCkMvnxx76CqMSo5,Gt0Y@gmail.com,0
ozVBN,tYskrJqGjz0PaWse,1,,0
Bn13CEdh2sRT,RTM7di2O1FKeIUEf,1,,0
TGpFNcnGC,6hoy5dKudXFLz1l,,127@gmail.com,0
dtjVSd5gSi,ICQKsb3LuJmGPr,0,vIBW@gmail.com,1
09nf,QxgkjlbqtuZmy,1,mk94@gmail.com,1
yxlJZRLADqv3,VurSGgo74P,1,@gmail.com,0
AECAqDEAP,70YvUiLLzty8a,0,X@gmail.com,1
JMgKJDSV648k,BfjRFmXmCXYK,0,2,0
rx7ChQJQ,lKlFCGoTYoRwR8BZ5,0,aFg@gmail.com,1
bULO65n5IE,wW33s3rInDXZEY4R,1,,0
BxtUcvR4N,jhlIT3RKzTO4aA2IO,1,,0
ggwmiOSEz9s,BacErtG0h,1,cAtqnpdF@gmail.com,1
zg6j7oa6,E53bSMS,0,LCKs72@gmail.com,0
,PEcZBQNA20jPbL2,0,xlARuUoOI@gmail.com,0
w33W,SCJcCTPgV9c3E,0,gTJ0Aa5v@gmail.com,1
4Ea,wGJWPM2YYgdaR,0,XFQEX5Th@gmail.com,1
xLLDfC,EebPSq01ujoEOcPf,1,,0
m8Q10,0jKOwSEQl,0,CJHK@gmail.com,1
ng84K,Qe7zmH9dIUEq,1,olu@gmail.com,1
J7bv2Qjk1Yu,JsVZgioaa1414z,0,2gHeT8@gmail.com,1
,iF4dgamU07vUXE,1,MVr@gmail.com,0
mfGJIGEQd,yBkbhlct5NAm574,1,6Or2Fm@gmail.com,1
NRYETdt1,LwP7viume,0,UAmTX@gmail.com,1
BdZkT7Q,2nMOieQOBvHGWIU,0,tuPiT@gmail.com,1
YXF5,46108158693,0,,0
1jXnhBlSHsq,MfJ5BWEBuQDEaXR,0,pyTsXqHl@gmail.com,1
,21695092754,0,,0
78349358388,OBM3xzof7cw5eVkE,0,WemgRJ@gmail.com,0
bG4B9tfu,6gynIawpeDLB,1,fFg8RDF@gmail.com,1
ZLGL4AEoGTDi,bNosrfLWA5lnB,0,jYyL@gmail.com,1
,s0uAQHP8h18mqXJ5m,1,@gmail.com,0
blF2Z,8tM3QSZSxlQdKy,1,krwDXA@gmail.com,1
bV5mHUhPcks,LPQ12fJHl7Wh,0,2,0
,GZbPWWpisdm3Vjoc,1,qiX0zq@gmail.com,0
h4M8V6AHRmj,PwXgjTphwtaUJFJkn,1,m6ag0G@gmail.com,1
0ajN201,BCu4xLHGrxFnF8TY4,0,eI@gmail.com,1
C0A6,srNAHv6Qx,0,3Bo4@gmail.com,1
aGrYxNd,WmQt0B0A,0,AE7nEW@gmail.com,1
5gUZal5qaMZ,iRD6BUC6oyk95Nn4S,0,t2m@gmail.com,1
tsdqVJku,,0,eababF@gmail.com,0
,yvvq1kPW,1,hwKqJ2kZ@gmail.com,0
gc5gKomSd,1o7meZmkrEFt4s53C,0,df@gmail.com,1
Yo9N,D6VzfP6CSNuanz,0,3,0
,PUa,0,,0
yY7,57725505134,1,@gmail.com,0
4VEf06CM,fOXlodnBNzN,0,2,0
plM,,1,@gmail.com,0
F5jsM1yZ,27425182099,0,IMSKkpG@gmail.com,0
uM,zgxIuAQ9nd0oSpUou,0,2,0
fQfIkt19vuH7,9C0DtkCEESAMkxzQ,0,FkBDChFb@gmail.com,1
,yk9ZkQqUJZlG,0,uVUaWSyUD@gmail.com,0
bUvQ5K5,qUYP17XMPXmtnVy,1,@gmail.com,0
txw8AWF,6BzPfdZzBGEnn,0,2,0
IhsW8r,JDYUhEgV0cpsA0cGK,1,@gmail.com,0
SxbnLkqz4,81684304382,5XlY0C4frDZ0lLEEvB5,,0
2B9XagXBO1M,B,0,f6@gmail.com,0
sa5MXpYK,EneM3a9rPReX64,1,3,0
L7U,vd4Sqslxo,1,t@gmail.com,1
3M8BkK,qs6OB9cL6czvsxNk,0,ap@gmail.com,1
F,1IJCcoph0yNe47CL,,L@gmail.com,0
AJzElTyBsH,vcmUFPWgrq,0,zG7P9wU@gmail.com,1
O1B,JasenbDNP9,1,66@gmail.com,1
3pOiZOdho4X,Cz5X9NbaT2n,1,9Yn7a@gmail.com,1
aH12rII,VgnNjLcGedA6IGu,0,B3a@gmail.com,1
bzon0mfEsgWV,,0,umye9nRCK@gmail.com,0
4sumhy7,,1,v@gmail.com,0
UsX5w1lj,TuLHUEOkmLEZLh,0,3,0
RoTjHmyAyqT0,Go0VgNMt,0,df9HEAB1T@gmail.com,1
3sJma6nMLjp,jYOwWDVQJwG,0,@gmail.com,0
86364543001,D9AeKG6TO,0,XJq@gmail.com,0
PrWiSyB2aws,jveZgGVDlC3Tuq,1,Tako5WnD@gmail.com,1
murbELEIa7,YhlTQIpLW,0,D9MDnSX@gmail.com,1
WZx,Gu4FyDTBVOiOb,1,,0
cUnpxuuUKH,Dt83T,,yXsz@gmail.com,0
LAwwJad,PO4V5rAkaCxZ5u,,3Dilrki@gmail.com,0
GHnn0M,IsH4N7Yw,1,r9V@gmail.com,1
GyAwEozbL,74u7uS6d4Iz,0,erLL@gmail.com,1
HSnKDuoC6B3,lKAyNeQhmi1I,0,@gmail.com,0
N7r56dSX,DAxLm4a4BjLkG,1,l6jt34@gmail.com,1
7TXHzni5,lJgcR2UKz9BPvR4,0,@gmail.com,0
SvG6eZoi,2LEKVGFMc,0,cM1@gmail.com,1
38277500057,97070523203,0,4i@gmail.com,0
,FKAiLG3a8P9qy,1,0S8nNRi6w@gmail.com,0
F5Q,vLOAK57N5qPe,0,@gmail.com,0
mPxCpa4u,lvoCOo6d4x85mYw5,0,,0
o5H,UNTfVzWQX,1,,0
41654728421,kYIQq4mVbnUrZuje9,1,vqZq4@gmail.com,0
,r6PWY58etj,0,1IbVWJz@gmail.com,0
2v0SweVeomC,U6scxxe4rkRp,1,Jd5eit@gmail.com,1
0jtvVBFTl,zytcy7y5,1,3@gmail.com,1
H,NCSvBWdRHGKK,1,f@gmail.com,0
89011089337,V,1,@gmail.com,0
Ne7ken5P,1jtVFFzFAkmbs,0,72RCza@gmail.com,1
OSpWv7In,HkbYsxpgw,UwEWfmVZ,3,0
dSjDe,qOJHDMGlIuYWf,1,UwPwDUa7y@gmail.com,1
5WLXq,KalODVdk,0,s07BJT@gmail.com,1
sy4RF9,MpBrFg84UsCF,1,S6@gmail.com,1
n0XnPYbf,JPEMIwmR1uF,1,2tclom@gmail.com,1
Dc9wSZkpT,28960659151,0,7yChZHU@gmail.com,0
SiI8F6TuEfmv,On7cfhNTyJAp,0,qh3ke6@gmail.com,1
o7aH4,83Yw9wLzQxdeWvi2k,1,@gmail.com,0
GdzxYMiAJ,Qg5JcPz5Ymv1Q9txW,0,S@gmail.com,1
7v2mT354a,g6y12N64fjFtbRu,0,jS5lld9f@gmail.com,1
4HGndIFaw8Ud,EsIA2J5v,0,,0
0tUecLC1fO0,jbfBLvGpJq,0,v@gmail.com,1
C3QsGg5uF,GjLB7UeNM,1,@gmail.com,0
WVwILdI,,0,8ybv@gmail.com,0
RgaFOd15UDI,NkiviWsm,0,@gmail.com,0
sYY,7QG38DVCiH44aPKL,0,JSmh0@gmail.com,1
pvb40mal,1rLw14qckXlTOQ,0,t26Cyam@gmail.com,1
ClZnBEdqMEo,ktsP2idCGKj,0,2,0
74257569105,bkrxlUpWECkIpJQE,1,lm1rks@gmail.com,0
d9NNBOwH6,Wsr1NtnMDzYDFZLc,1,eghc5bd7@gmail.com,1
pEElGlnT1mSs,x66Xf7H26f3612O,0,3,0
NoTbgEMRAYEN,XNekYR8oLB,1,bdf3@gmail.com,1
fdVOfm,ObsbyziDkIa,1,0KHMPVRN@gmail.com,1
vIBzgg6zu7,oAXzy9GhMBZRXAdA,0,,0
epNNez6eJiC,HTBZjE6QGzIt5zq,,MOoCT@gmail.com,0
loEc4Wefpi,EDdaCwukey29y3CMZ,0,Ty@gmail.com,1
,,1,30zfbaj@gmail.com,0
f6v4cBF9aST,4wqM8sOsVIZuY,1,xoI@gmail.com,1
gc24Z,BtYX9iQo9eqUfOoRP,h4SnED,u@gmail.com,0
PrS,ZY4HrHwdGDE7eyPD7,1,mpaOwQWi@gmail.com,1
bfoJj62U,64549860464,0,,0
cRikGhvmJaDG,JK4wTnnCKAg3SXKX,0,I@gmail.com,1
Dm2OniW,zkX4x3CA,9Lb0hcU0XDS,Sm@gmail.com,0
LZH5X,izqpuNBi2UpVjPtCP,,WqhYP@gmail.com,0
O12P,LMlU8xKN,0,2,0
2ags0,4IJ8OeDX,0,SwRBJtfW@gmail.com,1
kvm,h7nnUnjB,0,iEyAjUj@gmail.com,1
ZV5YQLJUG,NL,0,@gmail.com,0
6tetljZWX,cYms7K9YvrW2W,1,iA86@gmail.com,1
xY9J,OYf7XiYYqmj2fU,1,@gmail.com,0
GftXa,gWUArhd5S,,m@gmail.com,0
oyF5Jlx7cET,uIT0X3Q8iJgtFyiZw,0,FnazhA8Or@gmail.com,1
6CWcCjXQSdRt,KqvKXrsmFfIPm,0,@gmail.com,0
L6I,zDMnKPwSZ5cbMSt,qlqEMjYBD3SJpb,2,0
zBAl,81h8tatypmta,1,2,0
rsq,Au0BhSFxH,,qTV@gmail.com,0
xAT2kFQ,eQvqVXQFQ8sR,0,0QY74hH41@gmail.com,1
plmQ0pUMw,DDgJ9hlK5QLxVr9,1,,0
WWt,3Ol6va61Bs85xcc,0,Vu8bCj@gmail.com,1
BXqHAFsmyj,,,dx07@gmail.com,0
uzGWFdBei,,,T@gmail.com,0
qPubKSu,7884842352,0,2,0
VPKG72Dx8ll,eLBpnuZATsDeh,1,,0
swb,QGwBCQJNyzBPOm,0,V@gmail.com,1
44781261751,FluKpGimgh4HTy3,1,FD03dTZgP@gmail.com,0
CUQbh2q1,Oc3zpsufd0CCa3D,0,2,0
iYwUs5,,,Dn@gmail.com,0
ZUOeuX0BohV,,1,5Ml@gmail.com,0
CPZe,V8pGshNySpnS9AI9,0,mRthb@gmail.com,1
1AvdRFcF,hcwLiInSmgG40Z,0,2,0
jcjk,pimuK9jJvdM,0,FkAauFe0@gmail.com,1
14829249018,MfCDlBVHsbV3X0nqN,1,MYW2@gmail.com,0
5YZaKI,twuRuA4qWykheOJ,0,h7eKXtQhe@gmail.com,1
h2BTa6Z,wuJEGGRARav57i,mz81uwQe9ZPtg,Pj@gmail.com,0
AXJmamZn,vhoLo57W,0,Ja67ZX@gmail.com,1
jw9UK,UpaqMzO8OmPaT1bAD,1,bHf@gmail.com,1
N6y0nm4lof,rIkhdy1Wb4TI9DS,0,9c@gmail.com,1
jTKnx2F,UEe2Z1rYJ,1,hKeGL9@gmail.com,1
EUzNCaf,OieBXYDefQC,1,,0
OKvj9r,dUXsgKFDw1Z6,AD9ctorJqGWgBf,U3TYJ@gmail.com,0
6,vzZgDtFNKFdHkaThn,1,qIqjU@gmail.com,0
nDrYZ0rMR8,dn61zxtBgBM,1,,0
pldYtc,tvLeKXmUMQcIoF1r,1,Kbq8@gmail.com,1
5Qi6,uAk7jKsNSF,0,2@gmail.com,1
jPkG,1Yvpnwuy,0,4AB@gmail.com,1
UKfU0sY,olArwf9MAivrasdX,f3,9ON6h38@gmail.com,0
JzttP,84omEwVFZUoZ,0,3,0
f60,lkn36GXlyosIalfl,1,,0
JeoDnrHng,cszNDhddOaGv3t9ZD,0,Nqgle@gmail.com,1
s2o8G3GNUvMR,ouIMLZROGbfOUR4V,1,OL9MMP3ht@gmail.com,1
,E4ed,xBtKxZ1S,,0
sbtxDwy8,H8EFP5GirxB3,1,0dMg@gmail.com,1
Rs4IZfPgv,txoxX40uHLAU8Ut9,,,0
DzcqtT,FTdhyHInLW,0,,0
DiU7rLimM,v5HZz5JjOEiv,1,aVSw@gmail.com,1
vNfNXqWUTVCI,Mo8n7bGQdxvim5nE,0,o@gmail.com,1
vKETCC13guYn,PtEsRsZ7W,0,,0
67qLWijVJT,aQeSRZ6roT3,0,@gmail.com,0
,R2HvSymJAnX,0,,0
oEjXTMmVeW9,zQjj0T8b1SpPTX,1,2,0
TRRCCs,LKcRFRNEgw78tvu3,0,,0
A24gY,Q9BsXEjt,0,PZ77@gmail.com,1
hPnnsOqaJQ,dqGAnClefB2uLS77N,1,GbC@gmail.com,1
67irfK6cH,F5ZihqIIY2UG,0,JVQKR@gmail.com,1
leOaaNvq,SjCqlxKeW,1,bRvSRdn1@gmail.com,1
D9fGoFRinjs,jB9C50h4I2RH07BLB,0,ADdcYOq4@gmail.com,1
JYAfJO3mO2Z,kcGrEo0YQN,0,,0
67955843358,v9IGJdPyFcXB6su,,yo@gmail.com,0
7WUZgVwy,3IfWULvw2,1,2WIOzf@gmail.com,1
,TfvSSwk4x8IRX,1,VHI@gmail.com,0
49690359892,pojYBCiy8fVb,p5njR,Fsm@gmail.com,0
bnY,zNS8FHryHGSVPbuu,0,BliZKq@gmail.com,1
0T,ROQSSSs5QgLHD,1,SQN@gmail.com,0
NGPkwdYqCv,HqMX7jbfbx,0,3,0
VAt9q,DjfJmHLZZiPuHl42q,0,3dy@gmail.com,1
ryn9fu,owDYmOdzXLgiM,1,ehLXPQpQH@gmail.com,1
BXHPg5p0xnm,,Fpnyn14ckDV0cJbJMvrLBQ,H@gmail.com,0
VoC7s1ZHfqE,yYZtUYfO2,1,sht@gmail.com,1
eZls,RK6Cuzjfjzpr,0,1i@gmail.com,1
XgJ,V6lFzYzjwnzsI,,pWVHMoBc@gmail.com,0
SZ3VX,MjoXa1r9NeXJO,0,V5IckDv@gmail.com,1
x9W,Y57BRLYkEzq4,1,h5VKESV@gmail.com,1
88580019679,wP6TnVoGlrBi,0,cQn9Mrh3U@gmail.com,0
I2mw0qoHKu,OUTcMkKb,1,1W@gmail.com,1
huaK1yC0oyI,TuOGyBGmZr,0,FqOJDOA@gmail.com,1
0B0ICEWr,65555122384,1,h50wdsm@gmail.com,0
XF,uyZooZJBTMq6Jk,1,DGJAHcqrF@gmail.com,0
LsFeI,O1Ir9qKXwnLf6Jqnj,0,NjJHCOq@gmail.com,1
4PvIu,yFeRTC6w4qd,1,MVif6@gmail.com,1
KEo8PkB1,72026411696,1,3,0
J6,JaUuAcwD1j,1,w@gmail.com,0
GMFkE,X6bTRJ2UhTHqVM,0,15MWw5Vy@gmail.com,1
9DREbzBK,tXCPzQNb6Ir,1,RDnuO@gmail.com,1
lYitVNIbDULa,,1,EA1Yrtz@gmail.com,0
yOFjIsLkDXl,HRAGekpCpZh6rC8RF,0,OjP9udNNW@gmail.com,1
3PGJ,x8kg4D4ixv7Z,0,Q@gmail.com,1
BmTZF31UKaR,TqwkjCnBXLHEcGcpV,0,tSe3wS@gmail.com,1
,1fygnDzDU09H34T,,fwtjptAZh@gmail.com,0
pXVM4WoW3nH,52i6ri9v,1,g1JDR@gmail.com,1
,WFAphOJ6QAvZSmqm3,0,QEVvv@gmail.com,0
eUpX8ioVLoT,Ghdoq2Q,0,rv4@gmail.com,0
64781416518,JY1idqcntzeZx99vY,8oOxq9Jyr5gDNsmLHGrfcWNK,jL@gmail.com,0
xZ5jTVVAvmV0,s7XRjmM3,0,8@gmail.com,1
vrf,rpGtxig7F6BqUWV4,1,JI@gmail.com,1
0J2XceOT0,UtwL1ZoWNoaK,0,vUvymt@gmail.com,1
XSCF3GeV9a1,pnf5S3IC,34IBtwZPxrs0wdSTo7uUyrJR3,9dQtrQGY@gmail.com,0
sW1JKom3VO,7jxnuIlRG17jgJcn,,2,0
WSp5Hvdsxif,lkTJwjEMXRvk,1,yu@gmail.com,1
hr9IcMKgoK0L,v4zOJyAlH7Q1eO6gi,1,Yny@gmail.com,1
0hI,Jjh8Br1hW6xjhLR,1,eN@gmail.com,1
IrX,guuggxJe4XZJASD7k,1,Mua4lCJ@gmail.com,1
po1ZEi,32GGrulj3Q,0,@gmail.com,0
Zp5rf,87208085641,1,7g@gmail.com,0
vefb,ixU8cHVdiuKqa4IBN,,utwEO3dKY@gmail.com,0
v9OHGkX,bD3mzQgk3Ofb,1,veaWSKW@gmail.com,1
,V51XMQTzcccrerRS,0,3,0
ZNzzW31LK,lT7cZUq02U,F9beYNKjHjj1MW9xNyhHa,0bhW@gmail.com,0
FvbC,dE8kW,1,G4aHZzDd@gmail.com,0
30831930962,3YirLTDKav,0,,0
DANa0tGxpf,Yq6fZ11GonIotEbZ,1,2b3os@gmail.com,1
jh7tk8DD,wukvxNrYcmfHT,1,jo7Kkv@gmail.com,1
BBNAot9x,dbgEHwB4Vgewje2e,1,3,0
OsxETjVKo6Zj,HiY1xIIBZhX,1,@gmail.com,0
zmjUIJiqIZ,dFMTth2P,ZtO1i9BGPWnjtZfpzF7jZVxHfTizj,gzpk2@gmail.com,0
RDlgA,90i4BL8nWqr,0,3,0
pLDXXxbRH,AV7gXy7plFaYX8,0,N7vN@gmail.com,1
MTVH1FDHF,aFsziw9b,a3,QQ2WjNC@gmail.com,0
sU4,7ERk95n4bMi,1,,0
JA6PwuhMMXJO,dsqeig4kP1w,1,P@gmail.com,1
Jku,sJGAcOqyyYUcF,0,l6RLN@gmail.com,1
Fd5YmJ5,,1,X0hMBJY@gmail.com,0
AvRlDIs,taguBHpSIlUl,0,kV@gmail.com,1
CyowXri,xsOWVT3E6X1IB,0,Nincc2A2@gmail.com,1
TmuWTpU,AAmJ6buxi0O,1,L7cw4cuUO@gmail.com,1
Fj84s,slnb2bZbxlzIVV6Sy,1,jnS8JFd@gmail.com,1
96045643274,4529998626,0,3,0
FX3np,E3Y8M3l1tGil3gE,1,zZh0YkCjU@gmail.com,1
TVbPn,kx6TV6G1SW,1,KEvKyg@gmail.com,1
9ALT,6993835347,1,BuLS2@gmail.com,0
EdZ,1l2xI0u3Ez3,1,z@gmail.com,1
,j2UPwViHRO55FkT70,1,3ZJJxlN@gmail.com,0
3356423105,hGNGQH2XD,0,ojFpDZUVl@gmail.com,0
ldJ23fzr,VeCmKSZLbmKkD,1,nL7X@gmail.com,1
dhK9vOA6JXw,,1,BtL3q6@gmail.com,0
3kzx15BMGm,LcEXp10Rg6uGVWB,,@gmail.com,0
G8DClk,egXrP9YAckuYn3k,0,oKuJQfLi@gmail.com,1
pn90DVDBVD3S,L4Rb5CTGS,,gFpdxMO50@gmail.com,0
5r0Af,WYnx9g6qzKdDA50,0,fK8WY7@gmail.com,1
cSO1T8PRh5b,xvgFDHDeUBI,0,@gmail.com,0
nzLkXuDm0,ctV1FGSHilEKQApbE,1,FI@gmail.com,1
DRybKdDYEM,XVq6wSbKs9F8m,0,@gmail.com,0
Vr0gRNAy,bO464CnwY,0,2,0
DpK,725hz6MdyFFobj,1,WiY09@gmail.com,1
,AQOBqh8Wp,0,u1Vo5Rt@gmail.com,0
A,uCsoTdT7,1,MT2qSGkYW@gmail.com,0
2gYQfMPwvO,MUXoku2zufcWed,0,,0
1mTJz84W,KeyWsW5pz70W4f,0,3,0
fzzGjg,zrIl7cCzd,1,TKnx@gmail.com,1
,6KmDqnkG7VpQ0aJH,1,Accv@gmail.com,0
P7Qm5h4,KcS4QsXzKi0E962Aq,0,8qnC@gmail.com,1
b,,1,46w31tzr@gmail.com,0
8vCDkrW,3GGCwcr1,1,fenAjulht@gmail.com,1
DdcZt4,2rEGUrWGF7ug0iX,1,L@gmail.com,1
s03lbb7,5b6zuqbx,1,6nVO@gmail.com,1
qYPQDwVnLHVP,Dvbp4pdIuLnt7,1,jg9NVlms@gmail.com,1
1xP,VMVnjy2Rsl8d,0,S@gmail.com,1
,r0c6qjKEdSZ3,1,9HvoXJ@gmail.com,0
pMqnSCLi,,0,l@gmail.com,0
1whv3,r3ifLzqquR,1,jxE@gmail.com,1
CARLLfc,zvOSKPGg7vR,1,Y@gmail.com,1
GZ0xBWX,v9o2VUoMSd1k,1,x3eOq63@gmail.com,1
T,RiLTgKqNP,1,L@gmail.com,0
tXZbAZaOa,6ZVZTNWLySGyfx4,0,69hy@gmail.com,1
0SABmr,QjBz7ugBMjSb,1,4g@gmail.com,1
XJpXGnIZ,BUeYqOtWr,0,3,0
jTfcKPYjbYE,9TVXYVPVgtudn,1,u1ThAf5Ll@gmail.com,1
uYs3eyhm3uD2,AVvGnSPKa0J,1,r@gmail.com,1
,yo9lXS5NoqPK3LJ,1,@gmail.com,0
dwAVCG6,sPpjWLaGclO5,1,D@gmail.com,1
nhD,dli4R1RbBqiDo,1,,0
,X4pzrGkJSFzqS,1,BOLZeHcJx@gmail.com,0
GE15Kw,Qmu7hPg5FIHqL5,1,asFFwoZ@gmail.com,1
J7pD,lIm4zaYYT,1,,0
LCc4H5wWiZZT,,0,,0
SsjRK5eLfRwU,oA90bodrea989yH,1,JZwm7yc@gmail.com,1
DPKO9J6,IcaFjKsfRygS8SC5J,0,,0
WUbjCKTcmXd9,RIWyZsNvfNBzuGNP,1,Cfv@gmail.com,1
GZ5w,9yM9cL3cIpSGW,0,hhAxfX@gmail.com,1
WZnk,LHRs6l32xWMR4DFB,0,021y@gmail.com,1
8X59RBtWs,,0,l6384ju@gmail.com,0
pnX34N,4Fpa2TsfIljghf,0,4vvD1M4@gmail.com,1
U3U,PMY26cZiEmbF,0,@gmail.com,0
hEerN,spGJeZyJAAz,0,FX@gmail.com,1
QJgGngL,CuaaO5gVtPY14L,1,vDKFAn@gmail.com,1
3,qdSmwmlkFu81Mo,1,gkkq@gmail.com,0
NNTpq,LDiCqrnzqSjs0xN2,0,,0
3gQ,wVhn9aR22EB,1,3,0
AozjVWVunM4h,R1OqzSNA1sc,,QapfMY@gmail.com,0
V22wq,0Kzg49qgmkEi,oURoUHkgHaOa0lEMKfu4hfP9,QGOJg@gmail.com,0
,z8c,0,XgFAzzY@gmail.com,0
nZG,nBKaoOp2o,0,JERdXm6n9@gmail.com,1
EPOgvh57,wrXXCKlKMDcWvk,uOFS1167KjlsnU42ni,@gmail.com,0
g7BubSm,NELj8MNSr,1,,0
pLvtDzfm1,gezq1G5a,0,Z8tqCbUC2@gmail.com,1
kc3a2tiVDfrY,DUt99qfJ6,1,ZVMxEdeBu@gmail.com,1
zK5kKRvk,kuNfCxLGFAEMCN,1,1q5wnT@gmail.com,1
04ABnGtIVZ,,1,7@gmail.com,0
yRd7LCG9nVg,1I4vIvTc4naXU,0,QDnikI@gmail.com,1
RwIdB9Mp,,0,TDg4Q4@gmail.com,0
6,zfny2b4FObYE,0,,0
q3alefE,21351409406,0,4NchAG@gmail.com,0
IG0m7kE1,tXHixQwjBi24r,bCQhrJVIf4qPr,EaZtMjE@gmail.com,0
sbK,XQG1iGZrX,1,M6IWwi7@gmail.com,1
fDbC6Czlc,9PU1c1Nli3bowZAIE,0,A@gmail.com,1
QRcMr,FqBlhh4sm6jWcHF,1,VjfL4k@gmail.com,1
YX0lTW4d9nW,czrMxHbf3v9dbvhs,,,0
g7ryI3Dg,,1,2,0
hHJVS0,,1,RTsUt@gmail.com,0
vcc1XioJibb,HxMoFXyuLwVynsKps,1,GHEoTo@gmail.com,1
uSXjM,3DBO0QaWf8O,1,fwAAEtt0n@gmail.com,1
6W9fWgW,knyCfq31,0,@gmail.com,0
7pIUR3tUTi,bdedf54r01,0,0M4qHoZA@gmail.com,1
8dGZGo0,okLJ1HBE,0,qw@gmail.com,1
iMlrC6NIQD0,sk8OiXpjdo52Lp,1,,0
33423636607,qZX6KOCdKWw2F,1,74ffJ1@gmail.com,0
y2isx,Pzd4Rsw7XaCNeCw,1,pHz@gmail.com,1
QvopTkcuM,uEKsxNXMvGMpa,xlZLts5D0ESUuoOKKgTewJ,9jU3vjV6@gmail.com,0
nKOdyp5FsddN,L5wrVBx9DcM41QN,1,62@gmail.com,1
w4akgj,mVqvCHqgqZJ,1,@gmail.com,0
N3Qb,pux2s10wVkg3R2,1,,0
7q8KFUnA,Sm7GAoSDwT6x3sdBb,0,MDWQ@gmail.com,1
92np1DMPM,yJoRO4AiJxfGzDJ,1,YhYrWseE@gmail.com,1
5klBys5F8cO,23239710180,0,2,0
csDW5xQRG1,r7c2T4vANdw,,jf76soq0f@gmail.com,0
MGalQIkmbL,wCxozAOTryIH,1,X@gmail.com,1
FP84,90525603251,,Chee@gmail.com,0
KjORN98ck6KE,05SLbIEwf,0,,0
YsLSHqpv7q,zzvH84,1,wEM1UC@gmail.com,0
mTHNp,zh8yv36MCH0V99KwM,0,et@gmail.com,1
IISwfjGROxS,EhRfkO5N34B0R,0,cnUCE@gmail.com,1
zLuH,gmyVFIAA31iQMq,1,yr@gmail.com,1
84756382887,8JxgnGfJ,0,,0
VBJP,rqJRAkJtdzwk,0,p@gmail.com,1
h4g,CLnrRd5mGVH7LXBDg,1,vakp@gmail.com,1
70B,pL6zMTAUu,0,,0
ULoop,PsP7eIfxzR1XkSiNe,,@gmail.com,0
ojd7FKH0QFRk,qFimz4q3r,0,uVw@gmail.com,1
5dVPpIKWN,739VCs84GEltkZr7,1,jJ@gmail.com,1
vT3qne,477341739,1,C@gmail.com,0
b,,0,2,0
0TDLtq,fI8vfExi,Hxt,Jdc7@gmail.com,0
J8LAeZvve6z,Z03U5EDVv,0,0@gmail.com,1
Qo0kNVkT,wZr3aPjIf,1,JAS@gmail.com,1
zVyFpG,9NhN9sAUEDb,1,WO@gmail.com,1
fTZQvH,1tlDbg0U0EHok0,0,lZb0Tn@gmail.com,1
gObyvreJG,Lj8m7LCPj,1,,0
5631546758,jhp1mqio,1,9iZR@gmail.com,0
j6PXK,500E8eJ4KBQxpJKO,0,GPfhDYlHB@gmail.com,1
73885650739,ghbwHMsqYKtU0VLS,0,wzX@gmail.com,0
XRp2thAZ,rLdvDKpWIS,1,8lU@gmail.com,1
JggZ,1vehLuLq5pS6e7xwe,0,@gmail.com,0
rfLnfZBmeV,ezOS9t9jgKfhn,0,qzeEKfyi7@gmail.com,1
fMgbotU,QUHeZqBUdUjTkXtLN,0,84HRlNQ1@gmail.com,1
SHU,XVNtN1Jr,0,,0
bvm,89CUFP6KJAb,0,q6LK6QyCz@gmail.com,1
P9Pu,qDZa6HCidsgvmW,0,@gmail.com,0
hRB61,sWXkcshsrjZc3T,1,bJLFmjp@gmail.com,1
YzNvrMKWl7Si,oBGYQGYbFyq9ZZNYJ,0,2B@gmail.com,1
CYA0G7y9svBr,6czBkq0,0,p@gmail.com,0
a8lepX,mDFYREteKJGKrV0,0,F@gmail.com,1
5LgA,zuYBjUW41CpJG5Dy,0,Hs@gmail.com,1
t2fogmyY8,1VK95hJ0,1,jXlI@gmail.com,1
,2J1sye3OQrquqX,1,CNLHfGaz@gmail.com,0
jKZsW2gLeg3u,,y5jce5q,CJ4ZkEl7@gmail.com,0
17730344978,,0,2,0
,eRUuHKku,1,@gmail.com,0
qSJo,fkpVxhEOOp,1,ha3@gmail.com,1
BBp,BSrwLBZb60,hxqqMVtqG8lOryl,3,0
r4Atab,3992979133,0,3,0
SNzZ,B8QLGG3uO,1,GT2p@gmail.com,1
LnbhV3,xotG48,0,2,0
67414429743,OEtGiRfJBH,0,kr9@gmail.com,0
BCe4EZdQBOS,u6Pyg4LEyhuGjRh,1,2,0
CBDF1iO9CnyM,eVcCVP1owRPuK,0,@gmail.com,0
D53Mi,Qbt4ORZ2UO,1,72@gmail.com,1
kL,29188696623,1,4TkA@gmail.com,0
vn7t7zmvK,E9WDCWV7,0,jWED4@gmail.com,1
tX68mfCGyF,,1,cnz@gmail.com,0
76sdKllA9Hr0,IqvjvtqrMs,0,e@gmail.com,1
GYYqGl5qAkE,yQzeoYIb6xJ9gw,1,V0XAbGhIS@gmail.com,1
vAOKXZmo,afev4NuAJ8lypzb7r,0,MGeIb@gmail.com,1
6A,GwrXaM52Wad76RS,1,mq8MXaPci@gmail.com,0
GnwASZKF8seE,uIXobvtgd5Z,0,2,0
1689043776,UVONtYXZlC39,0,2,0
P4MkqSp,UxI3plJgJ,1,2k@gmail.com,1
eiWMwNzU,m2gSUNrNmrSqUD5DN,0,6JmH@gmail.com,1
PkYNVvA4aB,IOMoozL8J1C4K4CJ,o0POu4W1xV,XkuY@gmail.com,0
L8g,wLBlAiyDu8iTf,0,2,0
1F0dhwDv41,G0UTVm56IZdUeB,1,jBFZJ@gmail.com,1
65sPGN6p,lXPErPMsDj16i4sqp,joFxY8yPX7rLk0WIRcGCi,ASNA@gmail.com,0
LvX1Djt9s,uWYTzIyA1Lu0J,0,,0
BGjl6Xm5soDJ,sX0Bs8cR9,0,HH4jm@gmail.com,1
,90264211002,1,@gmail.com,0
9gqPdki9t,NxZt8XAcT8MJvh7aT,0,4LQ8@gmail.com,1
Abf4,dKyh4YDv1L1XpBb,1,jUeyHk@gmail.com,1
NZKgUDEl4J6H,66222424606,1,Dc@gmail.com,0
QGMFgD,OIW3SYOmpKto,1,D@gmail.com,1
jrmgk,DWfTr489Kidrb,1,2,0
W2rZLl,Hwojwv1p,1,3,0
XBs,1fXAHfEE4SutHFy,,@gmail.com,0
bSZxF0uWkDSo,csqit5aDZ,1,6T@gmail.com,1
I2kpzFNya3P,8484476493,1,s9jXS@gmail.com,0
20jqB,DzFwzG02Og,1,jsX@gmail.com,1
dPm5Jt,t5bpKtSI1jp0R,1,v9vnLb@gmail.com,1
FfC3,7lujev9ouRwSxqLke,1,vkAHMom@gmail.com,1
0hWZ,rv9eRZbnvk8aGNn,1,@gmail.com,0
GVZSdFI2yS,LP07ipoifVqN,0,m@gmail.com,1
kMIeey4Wr,zB6akN1cpjg7S,1,kZs7KZA5p@gmail.com,1
ECz,hKH3hAIhJmzsuV9,0,fKqHDehz@gmail.com,1
sH8WY,35929966852,0,kJ@gmail.com,0
xVmytGJwYs,JwezH0KbOAw,1,xM1o@gmail.com,1
HFkCswS,VhvcZhQITbnC,0,WWdfq5@gmail.com,1
AMA0tQ6l1,NHNkOMzsfT,1,ByVdYmH@gmail.com,1
bIbWBsx,N18gyHumckqbeDZvu,,uFAEZBmQ@gmail.com,0
o7U,bFfqgGHxjQz4P,1,,0
xx8J,92WnpqlauBt,1,xyy@gmail.com,1
F5sd,zqjVLd2ct,0,PC3@gmail.com,1
0IZF249XVB,njfrrWGEp21Brkrok,0,2,0
AKkz,eeWSiv7etb1,,2,0
IWx34EfOobo,dGBOjJPCqLfISnZ,1,2rgw2Uaj@gmail.com,1
XhheYu,zrAWfsslNZK,1,8hR@gmail.com,1
18851926596,OHJmpcYGVrFhbBgJ8,1,9yJ@gmail.com,0
XR7lIW6eYM,0cVBGYXH6qSyLSdux,1,chsxvRgv@gmail.com,1
