visibility,affiliation,direction,sort,type,faulty
private,,asc,pushed,public,1
,collaborator,,,owner,1
all,collaborator_and_2Corganization_member_and_2Cowner,,,owner,1
private,organization_member_and_2Cowner_and_2Ccollaborator,,,,0
,owner_and_2Corganization_member_and_2Ccollaborator,desc,created,,0
,organization_member_and_2Cowner,,,,0
all,collaborator_and_2Corganization_member_and_2Cowner,asc,,,0
,organization_member_and_2Ccollaborator_and_2Cowner,,,owner,1
public,,asc,,member,1
,collaborator_and_2Corganization_member,,,public,1
,,desc,full_name,owner,0
all,,desc,pushed,,0
all,organization_member_and_2Cowner,,,,0
,collaborator,,,,0
public,,asc,updated,private,1
,owner,desc,,owner,1
,owner_and_2Corganization_member_and_2Ccollaborator,desc,pushed,,0
,organization_member_and_2Ccollaborator_and_2Cowner,desc,pushed,all,1
all,,desc,full_name,,0
private,owner_and_2Ccollaborator,,full_name,all,1
,,asc,,all,0
all,,,,private,1
private,,asc,pushed,public,1
public,,,updated,,0
public,,,,owner,1
,organization_member_and_2Ccollaborator,desc,,,0
,owner_and_2Ccollaborator_and_2Corganization_member,asc,pushed,,0
all,,desc,updated,owner,1
all,organization_member_and_2Ccollaborator_and_2Cowner,desc,created,member,1
,organization_member_and_2Ccollaborator,,,public,1
,owner_and_2Corganization_member,asc,,member,1
,collaborator_and_2Corganization_member,,,member,1
private,,desc,,private,1
,,,,public,0
,,,pushed,,0
,collaborator_and_2Cowner,,updated,private,1
,,asc,,public,0
all,organization_member_and_2Ccollaborator_and_2Cowner,,full_name,,0
,owner_and_2Ccollaborator,desc,updated,member,1
private,,asc,,owner,1
all,organization_member_and_2Ccollaborator_and_2Cowner,desc,created,private,1
,collaborator_and_2Corganization_member,asc,,member,1
,,desc,full_name,private,0
public,,,,private,1
,collaborator_and_2Cowner,,created,member,1
public,organization_member_and_2Ccollaborator,,updated,,0
,owner_and_2Corganization_member_and_2Ccollaborator,desc,updated,,0
,,desc,created,public,0
,,desc,,all,0
private,,asc,full_name,all,1
,owner_and_2Corganization_member,asc,,,0
private,,,full_name,,0
all,,asc,,,0
,,desc,updated,private,0
,,asc,created,member,0
,,desc,,all,0
public,,desc,,,0
all,,desc,,,0
,organization_member,,,all,1
all,,desc,,public,1
,organization_member_and_2Ccollaborator_and_2Cowner,,,,0
,,desc,updated,owner,0
,collaborator_and_2Corganization_member,asc,,private,1
public,,desc,created,member,1
all,,,,member,1
private,owner_and_2Corganization_member_and_2Ccollaborator,,,owner,1
,collaborator_and_2Corganization_member,,pushed,all,1
,organization_member,,,private,1
,organization_member_and_2Cowner_and_2Ccollaborator,,created,,0
,,desc,full_name,owner,0
private,,asc,,all,1
,organization_member_and_2Ccollaborator_and_2Cowner,,full_name,public,1
public,,desc,,public,1
,,asc,full_name,,0
all,,asc,updated,,0
public,,,,,0
,,,full_name,owner,0
,,,,private,0
,organization_member_and_2Ccollaborator,,created,owner,1
private,,asc,updated,all,1
private,,,,all,1
,,asc,,,0
all,,desc,,private,1
,,desc,full_name,public,0
all,,,,,0
private,,,,owner,1
private,collaborator_and_2Corganization_member,desc,,,0
,,,,private,0
public,,,pushed,member,1
,organization_member_and_2Ccollaborator_and_2Cowner,,,all,1
,,,pushed,,0
all,,,,,0
,owner_and_2Corganization_member,,,private,1
private,,asc,,all,1
all,collaborator_and_2Corganization_member,asc,,member,1
public,,,created,,0
all,organization_member_and_2Ccollaborator_and_2Cowner,,,owner,1
private,owner_and_2Corganization_member,desc,,private,1
,,desc,pushed,private,0
all,,asc,full_name,private,1
,organization_member_and_2Cowner,desc,,public,1
,owner_and_2Ccollaborator_and_2Corganization_member,,pushed,owner,1
public,,,,all,1
private,collaborator_and_2Corganization_member_and_2Cowner,,,member,1
private,organization_member_and_2Ccollaborator_and_2Cowner,asc,,,0
,owner_and_2Ccollaborator,,updated,private,1
,owner_and_2Corganization_member_and_2Ccollaborator,desc,updated,private,1
,,desc,updated,owner,0
,,,full_name,all,0
all,organization_member_and_2Cowner_and_2Ccollaborator,asc,,public,1
public,,,,public,1
all,,desc,,public,1
,collaborator_and_2Corganization_member,,,private,1
public,organization_member_and_2Cowner_and_2Ccollaborator,,updated,private,1
all,organization_member_and_2Cowner,,,public,1
,collaborator_and_2Corganization_member,asc,created,member,1
,collaborator_and_2Corganization_member_and_2Cowner,desc,created,owner,1
,organization_member_and_2Ccollaborator_and_2Cowner,asc,,public,1
,organization_member,,,all,1
,organization_member_and_2Ccollaborator,,pushed,public,1
,,asc,pushed,member,0
all,owner_and_2Ccollaborator_and_2Corganization_member,,,public,1
,owner_and_2Corganization_member,asc,,public,1
public,collaborator,desc,created,,0
,organization_member,,,private,1
,organization_member_and_2Cowner_and_2Ccollaborator,desc,full_name,all,1
private,,asc,pushed,owner,1
all,owner_and_2Ccollaborator,desc,,,0
private,,,full_name,all,1
private,,,created,all,1
public,,asc,pushed,,0
,,desc,full_name,owner,0
,organization_member_and_2Cowner_and_2Ccollaborator,,,member,1
,,,created,,0
all,,,,,0
,collaborator_and_2Corganization_member,asc,pushed,public,1
public,organization_member_and_2Ccollaborator_and_2Cowner,,created,,0
private,collaborator_and_2Corganization_member_and_2Cowner,asc,,member,1
,organization_member_and_2Cowner,,,public,1
private,,asc,pushed,owner,1
,collaborator_and_2Corganization_member,asc,,,0
private,owner_and_2Ccollaborator,desc,updated,,0
all,organization_member_and_2Ccollaborator_and_2Cowner,asc,,member,1
,,asc,created,,0
,,asc,,,0
all,,,updated,owner,1
private,organization_member_and_2Ccollaborator_and_2Cowner,,,owner,1
private,,,,,0
public,owner_and_2Corganization_member_and_2Ccollaborator,desc,pushed,owner,1
public,collaborator_and_2Cowner_and_2Corganization_member,asc,,,0
,,,full_name,,0
public,,asc,pushed,,0
all,organization_member_and_2Cowner,,pushed,,0
,owner_and_2Corganization_member_and_2Ccollaborator,,,owner,1
,,asc,,,0
public,,desc,full_name,private,1
private,,,pushed,,0
,,asc,,,0
all,,,,member,1
,,,full_name,member,0
,owner_and_2Corganization_member,desc,full_name,owner,1
public,,desc,,,0
,organization_member_and_2Cowner,,,public,1
,collaborator,,,private,1
private,owner_and_2Corganization_member,,full_name,private,1
,organization_member_and_2Cowner_and_2Ccollaborator,desc,full_name,owner,1
,,desc,,all,0
all,collaborator_and_2Cowner,,created,,0
,,desc,full_name,,0
,,,,,0
public,,asc,updated,all,1
private,,,updated,all,1
public,owner_and_2Corganization_member,,,all,1
,,asc,,private,0
,collaborator_and_2Corganization_member_and_2Cowner,,,,0
,,,updated,public,0
all,organization_member_and_2Ccollaborator,desc,,,0
private,,desc,pushed,public,1
,,desc,updated,all,0
public,collaborator_and_2Corganization_member,desc,created,all,1
,owner_and_2Corganization_member,,,,0
,,,full_name,public,0
,owner_and_2Ccollaborator_and_2Corganization_member,asc,,member,1
,organization_member_and_2Ccollaborator_and_2Cowner,,,all,1
all,,,updated,member,1
private,,asc,,private,1
private,,desc,,owner,1
private,collaborator,asc,,member,1
all,organization_member_and_2Cowner_and_2Ccollaborator,,,,0
all,,,pushed,private,1
public,,,pushed,,0
all,organization_member_and_2Ccollaborator_and_2Cowner,asc,,,0
,,asc,full_name,public,0
public,,,,public,1
,collaborator_and_2Cowner,,full_name,,0
,,asc,,private,0
,owner_and_2Corganization_member,desc,full_name,all,1
,collaborator_and_2Cowner_and_2Corganization_member,,pushed,,0
,,desc,pushed,all,0
,organization_member_and_2Cowner,desc,pushed,private,1
public,organization_member_and_2Cowner,asc,updated,private,1
,owner_and_2Corganization_member,,full_name,,0
private,,,updated,private,1
,,,pushed,member,0
,collaborator_and_2Cowner,desc,,,0
,,desc,,,0
,owner_and_2Ccollaborator_and_2Corganization_member,desc,,member,1
,,,,owner,0
,collaborator,asc,full_name,,0
public,,desc,created,private,1
all,owner_and_2Corganization_member,desc,,,0
,owner_and_2Ccollaborator_and_2Corganization_member,,,,0
,owner_and_2Ccollaborator_and_2Corganization_member,desc,,,0
,,desc,created,owner,0
public,organization_member_and_2Cowner_and_2Ccollaborator,desc,full_name,all,1
all,collaborator,asc,,,0
public,,desc,updated,public,1
public,,,,public,1
all,organization_member_and_2Cowner_and_2Ccollaborator,desc,updated,private,1
private,collaborator_and_2Cowner_and_2Corganization_member,,created,,0
public,organization_member_and_2Ccollaborator_and_2Cowner,desc,,member,1
private,collaborator_and_2Corganization_member,desc,pushed,all,1
,collaborator,,,public,1
all,organization_member_and_2Ccollaborator_and_2Cowner,,created,,0
,collaborator_and_2Corganization_member,desc,pushed,owner,1
private,,desc,,owner,1
,owner,,,all,1
,,,updated,member,0
private,organization_member_and_2Cowner_and_2Ccollaborator,asc,,,0
,collaborator,,created,,0
,organization_member,desc,pushed,,0
private,,,,owner,1
,,,pushed,member,0
all,,desc,updated,,0
,owner_and_2Corganization_member_and_2Ccollaborator,,updated,owner,1
public,organization_member_and_2Cowner,,pushed,all,1
all,,,,,0
public,,desc,,public,1
,,,,owner,0
,owner_and_2Corganization_member_and_2Ccollaborator,,full_name,all,1
,organization_member_and_2Ccollaborator_and_2Cowner,,,all,1
private,,,,owner,1
all,owner_and_2Corganization_member_and_2Ccollaborator,asc,,,0
public,,asc,created,owner,1
,owner_and_2Ccollaborator,,,owner,1
,owner_and_2Corganization_member,desc,,member,1
public,,desc,,all,1
,organization_member_and_2Cowner_and_2Ccollaborator,asc,,,0
public,organization_member_and_2Cowner,,full_name,,0
all,owner_and_2Corganization_member,asc,,,0
private,collaborator_and_2Corganization_member,,created,private,1
all,,,,public,1
,,asc,,member,0
,,asc,,private,0
,collaborator_and_2Cowner,,full_name,,0
,,,pushed,public,0
,,,,,0
public,,desc,,member,1
,,asc,,owner,0
,owner,,created,member,1
,,,pushed,owner,0
,collaborator_and_2Cowner_and_2Corganization_member,,created,member,1
private,organization_member_and_2Ccollaborator,,pushed,all,1
private,,,,public,1
,,asc,,,0
all,,,,public,1
public,organization_member,,,private,1
private,,,created,owner,1
,organization_member_and_2Ccollaborator_and_2Cowner,,,member,1
,owner_and_2Ccollaborator,,full_name,public,1
public,,,,owner,1
,organization_member,asc,,,0
,,,,owner,0
all,,,full_name,public,1
public,,,,,0
all,,,pushed,member,1
public,,,,public,1
,,,,private,0
all,,,full_name,,0
,organization_member_and_2Cowner_and_2Ccollaborator,desc,updated,all,1
,owner_and_2Ccollaborator,asc,pushed,all,1
,,,,,0
,organization_member_and_2Cowner_and_2Ccollaborator,desc,,,0
,,desc,created,,0
public,owner_and_2Corganization_member,desc,,,0
public,,asc,,owner,1
,owner_and_2Corganization_member_and_2Ccollaborator,asc,updated,private,1
private,,asc,pushed,all,1
,collaborator_and_2Corganization_member,,,all,1
,,asc,,,0
all,,,pushed,private,1
,organization_member_and_2Ccollaborator,,full_name,member,1
,,asc,pushed,public,0
public,,asc,,,0
,collaborator_and_2Corganization_member_and_2Cowner,,full_name,,0
,,desc,,all,0
,owner,,,,0
all,,,,member,1
all,owner_and_2Corganization_member_and_2Ccollaborator,asc,,owner,1
,organization_member,,full_name,all,1
,owner_and_2Ccollaborator,asc,updated,public,1
public,,desc,updated,,0
public,,,,member,1
public,,,,owner,1
all,,desc,pushed,,0
all,organization_member,,,,0
,,asc,,owner,0
all,owner_and_2Corganization_member_and_2Ccollaborator,asc,,owner,1
private,collaborator,desc,,all,1
,,,,private,0
,organization_member_and_2Ccollaborator,asc,full_name,public,1
private,,,updated,owner,1
public,,,created,owner,1
public,,,,public,1
,organization_member_and_2Ccollaborator,asc,full_name,all,1
,,asc,updated,,0
,collaborator,asc,,,0
,,,updated,owner,0
public,collaborator_and_2Cowner,,,,0
all,organization_member_and_2Cowner,asc,pushed,all,1
,,asc,,owner,0
,organization_member,,,public,1
private,collaborator_and_2Corganization_member_and_2Cowner,,,,0
,collaborator,desc,,owner,1
,owner_and_2Ccollaborator,asc,pushed,,0
,organization_member,,,private,1
private,,,,owner,1
all,,asc,,owner,1
public,,desc,,,0
public,,desc,pushed,owner,1
public,,asc,pushed,,0
public,,desc,,,0
private,,asc,,,0
all,organization_member_and_2Cowner_and_2Ccollaborator,,updated,owner,1
private,,,,owner,1
,collaborator,asc,full_name,public,1
,,,pushed,public,0
private,collaborator_and_2Cowner_and_2Corganization_member,asc,,owner,1
,organization_member_and_2Ccollaborator_and_2Cowner,desc,,,0
,,,,all,0
,organization_member_and_2Ccollaborator,,,member,1
,organization_member_and_2Ccollaborator,desc,,all,1
,collaborator_and_2Cowner_and_2Corganization_member,desc,,public,1
public,owner_and_2Corganization_member,,updated,,0
,owner_and_2Corganization_member_and_2Ccollaborator,,pushed,,0
,organization_member,,,private,1
private,,asc,,,0
,collaborator,asc,,,0
private,owner,,updated,public,1
public,,,,all,1
,,,,member,0
,collaborator_and_2Cowner_and_2Corganization_member,desc,,all,1
public,collaborator,asc,created,all,1
public,collaborator,,full_name,,0
private,owner_and_2Ccollaborator_and_2Corganization_member,desc,full_name,private,1
private,,desc,pushed,public,1
,owner,desc,,private,1
public,owner_and_2Ccollaborator,,pushed,private,1
public,organization_member,asc,created,,0
,owner_and_2Corganization_member_and_2Ccollaborator,asc,,,0
all,collaborator_and_2Cowner,desc,,,0
all,collaborator_and_2Cowner,desc,,owner,1
all,,,updated,private,1
public,,asc,created,,0
all,organization_member_and_2Ccollaborator,,created,member,1
public,collaborator_and_2Corganization_member_and_2Cowner,,,,0
,owner_and_2Ccollaborator_and_2Corganization_member,,created,private,1
public,,asc,,all,1
,owner_and_2Corganization_member_and_2Ccollaborator,asc,created,owner,1
all,,asc,pushed,private,1
,organization_member_and_2Ccollaborator,asc,updated,owner,1
,,,,member,0
,,asc,,,0
,organization_member_and_2Ccollaborator_and_2Cowner,,updated,private,1
public,organization_member_and_2Cowner_and_2Ccollaborator,,,owner,1
all,owner,asc,full_name,member,1
,owner,desc,created,all,1
,collaborator_and_2Cowner,,,public,1
,,asc,updated,,0
,collaborator_and_2Corganization_member_and_2Cowner,,,member,1
private,,,,owner,1
,owner_and_2Corganization_member,desc,updated,private,1
,collaborator_and_2Corganization_member,,,member,1
,collaborator_and_2Cowner_and_2Corganization_member,,pushed,member,1
,organization_member,,created,public,1
all,organization_member_and_2Cowner,,,,0
private,,,full_name,,0
,organization_member_and_2Ccollaborator,,full_name,,0
all,collaborator_and_2Corganization_member_and_2Cowner,,full_name,member,1
public,,asc,,public,1
public,,desc,,,0
,owner,,,private,1
all,,,updated,member,1
,owner_and_2Ccollaborator_and_2Corganization_member,,created,,0
private,,asc,,public,1
private,organization_member_and_2Ccollaborator,,,all,1
public,,,created,private,1
,collaborator_and_2Cowner,desc,,,0
,organization_member_and_2Cowner_and_2Ccollaborator,asc,,all,1
private,,,,,0
,,,full_name,member,0
all,collaborator_and_2Cowner_and_2Corganization_member,desc,full_name,,0
all,owner_and_2Corganization_member_and_2Ccollaborator,desc,,,0
,,,,private,0
private,collaborator,desc,created,private,1
,organization_member_and_2Cowner_and_2Ccollaborator,,,all,1
,owner_and_2Ccollaborator_and_2Corganization_member,,,public,1
,owner_and_2Ccollaborator_and_2Corganization_member,,,,0
,,,full_name,public,0
,collaborator_and_2Corganization_member_and_2Cowner,,full_name,all,1
public,owner,,,,0
public,,,pushed,,0
,,,,member,0
all,collaborator_and_2Corganization_member_and_2Cowner,asc,,,0
,,desc,,member,0
public,,,,public,1
,,,full_name,owner,0
all,,asc,updated,private,1
public,owner_and_2Corganization_member,,created,private,1
,collaborator_and_2Cowner_and_2Corganization_member,,,private,1
,collaborator,asc,pushed,,0
,owner_and_2Corganization_member,,,owner,1
,,desc,,,0
,,asc,,public,0
public,,,,public,1
public,owner,,,,0
,,,full_name,member,0
,organization_member_and_2Ccollaborator,,full_name,member,1
public,collaborator_and_2Cowner_and_2Corganization_member,asc,created,public,1
,,,,member,0
,owner,asc,,member,1
all,,desc,updated,,0
private,,,full_name,owner,1
private,collaborator_and_2Cowner,desc,,,0
public,,,created,public,1
,,desc,updated,private,0
private,,,,member,1
,organization_member_and_2Cowner,asc,,member,1
public,owner_and_2Corganization_member,asc,,private,1
public,,asc,updated,public,1
,,desc,,private,0
,owner_and_2Corganization_member_and_2Ccollaborator,desc,updated,,0
private,collaborator_and_2Cowner,asc,,member,1
all,collaborator_and_2Corganization_member,,,,0
,owner_and_2Ccollaborator_and_2Corganization_member,asc,,private,1
private,,asc,full_name,,0
,collaborator_and_2Corganization_member,asc,,public,1
all,owner_and_2Ccollaborator,,created,private,1
,,asc,,,0
public,,,pushed,public,1
public,,asc,,public,1
,organization_member_and_2Ccollaborator_and_2Cowner,asc,,public,1
,organization_member_and_2Cowner_and_2Ccollaborator,desc,,owner,1
,owner_and_2Corganization_member,,pushed,member,1
,,,created,private,0
,organization_member,,,member,1
private,,,created,public,1
,,,,,0
public,collaborator_and_2Corganization_member,,pushed,,0
,,desc,,owner,0
private,organization_member_and_2Cowner_and_2Ccollaborator,desc,,,0
,organization_member,desc,updated,,0
,organization_member_and_2Ccollaborator_and_2Cowner,,,all,1
,owner_and_2Ccollaborator,,,public,1
,collaborator_and_2Corganization_member_and_2Cowner,desc,,owner,1
public,organization_member_and_2Cowner,desc,pushed,private,1
private,owner_and_2Ccollaborator_and_2Corganization_member,,,,0
private,collaborator_and_2Corganization_member,desc,,all,1
all,,,,public,1
private,,desc,updated,,0
,organization_member_and_2Ccollaborator_and_2Cowner,desc,,member,1
private,owner_and_2Corganization_member,,full_name,private,1
,owner_and_2Corganization_member,,,public,1
private,,,,,0
public,collaborator_and_2Corganization_member_and_2Cowner,,created,,0
private,,,updated,member,1
,organization_member_and_2Cowner_and_2Ccollaborator,desc,created,,0
,organization_member_and_2Cowner,,,member,1
private,collaborator_and_2Corganization_member_and_2Cowner,,,,0
public,organization_member_and_2Ccollaborator,asc,,private,1
all,,,,,0
all,,asc,,,0
private,owner,,,,0
all,organization_member,,,public,1
,collaborator_and_2Corganization_member_and_2Cowner,,created,,0
public,,asc,,,0
,organization_member_and_2Ccollaborator,desc,created,owner,1
private,organization_member_and_2Cowner,,pushed,private,1
,collaborator_and_2Cowner,asc,,all,1
,owner_and_2Corganization_member,,created,public,1
public,,asc,created,,0
,collaborator,,full_name,owner,1
all,organization_member_and_2Ccollaborator_and_2Cowner,,,private,1
private,collaborator,asc,,,0
private,organization_member_and_2Cowner,asc,pushed,,0
,owner_and_2Ccollaborator_and_2Corganization_member,asc,,owner,1
public,collaborator_and_2Cowner,desc,,all,1
public,owner_and_2Corganization_member_and_2Ccollaborator,,,,0
private,,asc,full_name,owner,1
,,desc,created,private,0
,collaborator_and_2Cowner,,full_name,,0
,,,,owner,0
private,,asc,created,private,1
,organization_member_and_2Cowner_and_2Ccollaborator,asc,,owner,1
public,,desc,full_name,public,1
,,asc,,,0
private,,asc,,owner,1
,organization_member_and_2Ccollaborator_and_2Cowner,desc,full_name,,0
,,,pushed,public,0
private,,,updated,owner,1
,collaborator_and_2Cowner_and_2Corganization_member,asc,,,0
,organization_member_and_2Cowner,desc,,member,1
public,collaborator,desc,,,0
,,asc,,,0
,owner_and_2Ccollaborator,,,public,1
,,,pushed,,0
private,collaborator_and_2Corganization_member,,pushed,,0
,,desc,updated,private,0
public,organization_member_and_2Ccollaborator,desc,created,owner,1
,collaborator_and_2Cowner_and_2Corganization_member,desc,,member,1
,organization_member,,,owner,1
,organization_member_and_2Cowner_and_2Ccollaborator,asc,full_name,,0
,owner_and_2Corganization_member_and_2Ccollaborator,desc,,public,1
,,,,,0
all,,desc,updated,,0
,collaborator_and_2Cowner_and_2Corganization_member,,,all,1
,owner_and_2Corganization_member,,,,0
,organization_member_and_2Ccollaborator_and_2Cowner,,updated,private,1
all,,,created,,0
,collaborator_and_2Corganization_member,,,,0
public,,desc,created,,0
public,,,,member,1
private,,,,private,1
public,organization_member_and_2Ccollaborator,,,owner,1
private,,,created,private,1
,collaborator_and_2Corganization_member,asc,,all,1
public,organization_member_and_2Cowner_and_2Ccollaborator,asc,full_name,,0
,,desc,,,0
,organization_member_and_2Cowner,asc,updated,public,1
,,,pushed,,0
,,,updated,member,0
,owner_and_2Corganization_member_and_2Ccollaborator,desc,pushed,public,1
public,collaborator_and_2Cowner_and_2Corganization_member,asc,full_name,all,1
private,collaborator_and_2Corganization_member,,full_name,owner,1
private,,asc,full_name,owner,1
public,owner,asc,,all,1
all,,desc,created,private,1
private,,desc,,,0
,collaborator_and_2Corganization_member,desc,,public,1
,owner,asc,updated,private,1
,,asc,,public,0
public,,,,member,1
private,,asc,,member,1
,,,,,0
private,,,,member,1
,,,,,0
,,desc,,owner,0
,,desc,,private,0
,owner_and_2Ccollaborator_and_2Corganization_member,desc,pushed,,0
,,asc,created,private,0
all,,desc,full_name,public,1
,organization_member_and_2Ccollaborator_and_2Cowner,,full_name,public,1
,collaborator_and_2Cowner_and_2Corganization_member,asc,,,0
,,,full_name,private,0
,,desc,,private,0
public,collaborator_and_2Corganization_member_and_2Cowner,desc,full_name,private,1
all,,desc,updated,,0
all,collaborator_and_2Corganization_member,asc,,owner,1
public,,,,private,1
all,owner_and_2Corganization_member_and_2Ccollaborator,,,all,1
all,,,pushed,public,1
,owner_and_2Corganization_member,asc,,owner,1
public,,asc,,owner,1
public,,,,,0
private,owner_and_2Corganization_member_and_2Ccollaborator,desc,created,,0
public,owner_and_2Ccollaborator,asc,pushed,member,1
public,,asc,,,0
,owner,,full_name,owner,1
public,,,pushed,private,1
all,collaborator_and_2Cowner_and_2Corganization_member,,updated,,0
private,,,pushed,owner,1
public,,,,member,1
,,,,,0
,organization_member_and_2Ccollaborator,,,all,1
all,collaborator_and_2Cowner_and_2Corganization_member,,,,0
public,,desc,,owner,1
,collaborator,desc,,owner,1
,,,,all,0
,collaborator_and_2Cowner,,,all,1
all,owner,,full_name,,0
,collaborator,,,private,1
all,organization_member_and_2Cowner_and_2Ccollaborator,asc,,,0
public,organization_member_and_2Ccollaborator_and_2Cowner,desc,,,0
public,,,,private,1
,collaborator_and_2Corganization_member,,,all,1
private,,asc,,,0
,organization_member,,pushed,owner,1
,organization_member_and_2Cowner_and_2Ccollaborator,,,private,1
,collaborator,asc,pushed,,0
public,organization_member,,,owner,1
public,organization_member_and_2Ccollaborator_and_2Cowner,,,member,1
public,collaborator_and_2Corganization_member,,full_name,,0
public,,asc,full_name,private,1
all,owner_and_2Ccollaborator_and_2Corganization_member,,updated,,0
public,,,,,0
public,,desc,,,0
,organization_member_and_2Cowner,,,public,1
,,,,public,0
private,,,,,0
public,collaborator_and_2Cowner,,created,private,1
,,,,private,0
public,,,updated,,0
,,,created,member,0
,collaborator_and_2Cowner,,updated,public,1
,organization_member_and_2Ccollaborator,asc,,owner,1
,collaborator_and_2Corganization_member,desc,,,0
all,owner_and_2Corganization_member,,pushed,,0
,,asc,updated,,0
all,owner_and_2Ccollaborator_and_2Corganization_member,desc,,,0
all,,,full_name,,0
,owner_and_2Corganization_member,,updated,private,1
,organization_member_and_2Cowner_and_2Ccollaborator,desc,pushed,all,1
all,,,full_name,private,1
private,,,,private,1
private,owner,asc,full_name,,0
all,owner,,pushed,,0
,,asc,,private,0
private,owner_and_2Corganization_member_and_2Ccollaborator,,,private,1
,organization_member_and_2Ccollaborator_and_2Cowner,asc,,private,1
public,,asc,,all,1
,,asc,,owner,0
,owner_and_2Ccollaborator_and_2Corganization_member,asc,,member,1
,owner_and_2Corganization_member,,,owner,1
all,collaborator_and_2Cowner_and_2Corganization_member,,updated,member,1
public,,desc,updated,,0
private,collaborator_and_2Corganization_member,desc,created,,0
,owner,asc,,,0
private,,,,public,1
public,collaborator_and_2Corganization_member_and_2Cowner,desc,pushed,,0
,collaborator_and_2Corganization_member,,,all,1
public,,,updated,private,1
,,desc,,private,0
all,,desc,pushed,,0
public,collaborator,,,member,1
,,desc,,,0
private,,desc,pushed,,0
public,,,,member,1
public,,,,public,1
private,collaborator_and_2Corganization_member_and_2Cowner,,,owner,1
,collaborator_and_2Corganization_member_and_2Cowner,desc,updated,,0
,,asc,updated,owner,0
,collaborator,,,owner,1
private,owner_and_2Ccollaborator_and_2Corganization_member,,,public,1
all,,desc,full_name,,0
all,,,,public,1
private,,,,member,1
all,,asc,,all,1
,,,,owner,0
public,,asc,created,,0
,,asc,,public,0
,collaborator_and_2Cowner,,,owner,1
,,,created,all,0
private,,,updated,public,1
,owner,,,member,1
private,,desc,,,0
,,,created,all,0
public,organization_member_and_2Ccollaborator_and_2Cowner,desc,,all,1
all,,asc,full_name,,0
public,,,created,member,1
,organization_member_and_2Ccollaborator,,,,0
,owner_and_2Corganization_member_and_2Ccollaborator,asc,updated,,0
private,owner_and_2Ccollaborator_and_2Corganization_member,,,,0
public,organization_member_and_2Cowner,asc,created,owner,1
private,,desc,,owner,1
all,collaborator_and_2Cowner_and_2Corganization_member,asc,full_name,,0
all,,,,private,1
public,collaborator_and_2Corganization_member_and_2Cowner,asc,updated,public,1
public,,desc,created,public,1
,collaborator,desc,,,0
all,,,pushed,,0
private,,desc,,member,1
public,,,pushed,,0
private,collaborator,desc,full_name,,0
,,desc,,public,0
public,collaborator_and_2Cowner,,updated,private,1
,,,,owner,0
private,,,,member,1
private,,,created,member,1
,owner_and_2Corganization_member,desc,,,0
,collaborator_and_2Cowner,desc,created,public,1
,organization_member_and_2Ccollaborator_and_2Cowner,asc,,,0
public,,desc,,private,1
,,desc,,private,0
,,desc,,all,0
private,organization_member_and_2Cowner,asc,created,all,1
private,owner_and_2Ccollaborator_and_2Corganization_member,asc,,,0
public,organization_member_and_2Ccollaborator,,created,owner,1
private,,,,private,1
,organization_member_and_2Cowner_and_2Ccollaborator,,,,0
public,,,updated,private,1
private,owner_and_2Ccollaborator_and_2Corganization_member,,pushed,private,1
private,owner_and_2Corganization_member_and_2Ccollaborator,desc,,private,1
,,asc,updated,owner,0
,organization_member,desc,created,,0
,,,,all,0
all,organization_member_and_2Cowner_and_2Ccollaborator,,,owner,1
all,collaborator_and_2Cowner,asc,updated,,0
all,,asc,created,owner,1
all,,asc,,owner,1
public,collaborator_and_2Cowner_and_2Corganization_member,,created,,0
private,,desc,full_name,,0
public,,asc,,all,1
all,,asc,updated,owner,1
private,,desc,updated,,0
,,,updated,private,0
,organization_member_and_2Ccollaborator,desc,,,0
,,,,,0
public,,,created,all,1
,,,,owner,0
all,,desc,full_name,all,1
private,,,pushed,private,1
public,collaborator_and_2Cowner,,,all,1
,,,updated,owner,0
private,,asc,,,0
private,,,updated,member,1
private,collaborator,desc,,,0
,collaborator,asc,full_name,all,1
,,asc,pushed,public,0
,organization_member,desc,,,0
,organization_member_and_2Cowner_and_2Ccollaborator,asc,,private,1
all,,asc,,member,1
,organization_member_and_2Ccollaborator,desc,,,0
,collaborator_and_2Corganization_member,,pushed,,0
all,,asc,full_name,private,1
,,,updated,,0
private,collaborator_and_2Cowner_and_2Corganization_member,,,owner,1
private,,desc,,public,1
,organization_member_and_2Ccollaborator,,,,0
,collaborator,desc,,owner,1
,,asc,full_name,all,0
all,,asc,,private,1
,collaborator_and_2Corganization_member_and_2Cowner,desc,,,0
public,collaborator_and_2Cowner,,,public,1
private,organization_member_and_2Ccollaborator_and_2Cowner,,pushed,,0
,collaborator_and_2Cowner,asc,full_name,owner,1
public,organization_member_and_2Cowner_and_2Ccollaborator,desc,,public,1
public,,desc,pushed,,0
private,,,,public,1
public,collaborator,desc,pushed,,0
,organization_member,,,owner,1
all,organization_member_and_2Ccollaborator,,full_name,,0
public,organization_member_and_2Cowner_and_2Ccollaborator,asc,pushed,public,1
,,desc,full_name,private,0
all,,,pushed,owner,1
,owner_and_2Ccollaborator,,,owner,1
,,,,public,0
public,organization_member_and_2Cowner_and_2Ccollaborator,desc,pushed,,0
private,,,,all,1
private,,,,public,1
private,,asc,pushed,private,1
private,organization_member_and_2Cowner_and_2Ccollaborator,desc,full_name,member,1
public,owner_and_2Corganization_member_and_2Ccollaborator,desc,,,0
,owner_and_2Ccollaborator,,updated,,0
public,owner_and_2Corganization_member,desc,,all,1
all,owner,asc,,member,1
public,collaborator_and_2Cowner_and_2Corganization_member,asc,full_name,private,1
,collaborator,,pushed,member,1
public,,,,owner,1
,organization_member,asc,,public,1
,owner_and_2Ccollaborator_and_2Corganization_member,,full_name,member,1
all,,desc,created,owner,1
public,,,,member,1
private,,desc,,,0
all,organization_member_and_2Ccollaborator_and_2Cowner,asc,,all,1
,owner_and_2Corganization_member_and_2Ccollaborator,,full_name,,0
all,organization_member_and_2Ccollaborator,asc,,,0
private,,,full_name,private,1
all,,asc,full_name,all,1
all,,desc,full_name,,0
all,owner_and_2Ccollaborator_and_2Corganization_member,,,private,1
all,organization_member_and_2Ccollaborator_and_2Cowner,asc,,,0
public,,asc,full_name,member,1
private,,,,private,1
,organization_member_and_2Ccollaborator,asc,full_name,,0
,organization_member_and_2Ccollaborator_and_2Cowner,,,owner,1
all,organization_member_and_2Ccollaborator_and_2Cowner,asc,updated,all,1
,organization_member,asc,updated,member,1
all,organization_member_and_2Ccollaborator,desc,,owner,1
,,desc,,member,0
public,,asc,pushed,,0
private,,desc,pushed,member,1
,owner_and_2Ccollaborator,,,,0
public,,,full_name,,0
all,organization_member,,,public,1
,,,full_name,member,0
,organization_member,desc,,owner,1
private,organization_member_and_2Ccollaborator,,,member,1
,owner,,full_name,,0
,collaborator_and_2Cowner,,created,all,1
private,,desc,,public,1
,collaborator_and_2Corganization_member,asc,updated,owner,1
all,,asc,created,,0
,,,,private,0
,collaborator_and_2Corganization_member_and_2Cowner,,,public,1
,collaborator_and_2Corganization_member,,,member,1
all,,desc,,,0
,,asc,updated,all,0
,collaborator_and_2Cowner,,,,0
,,asc,,public,0
public,,,pushed,,0
,organization_member_and_2Ccollaborator_and_2Cowner,,,,0
,collaborator,desc,,private,1
,,,full_name,member,0
public,organization_member_and_2Ccollaborator,,,private,1
,owner_and_2Ccollaborator_and_2Corganization_member,asc,created,private,1
public,,asc,created,,0
public,owner_and_2Corganization_member_and_2Ccollaborator,desc,,,0
,organization_member_and_2Ccollaborator_and_2Cowner,asc,,,0
,collaborator,desc,,,0
private,organization_member,asc,,,0
public,,asc,full_name,owner,1
,owner,,updated,public,1
,owner_and_2Ccollaborator,desc,,member,1
public,,asc,,member,1
,organization_member_and_2Ccollaborator_and_2Cowner,desc,updated,private,1
,,desc,pushed,,0
all,,asc,,,0
all,,,updated,,0
all,,,,public,1
,owner,,,private,1
private,,desc,,public,1
public,organization_member,,,all,1
all,,,,,0
public,owner_and_2Corganization_member_and_2Ccollaborator,,,,0
,collaborator_and_2Cowner,,created,all,1
,organization_member_and_2Cowner,,,owner,1
private,,,pushed,owner,1
,,desc,,member,0
public,collaborator_and_2Cowner_and_2Corganization_member,desc,pushed,,0
,collaborator_and_2Corganization_member_and_2Cowner,desc,updated,public,1
,collaborator_and_2Cowner,asc,pushed,public,1
public,,,,,0
private,owner_and_2Ccollaborator_and_2Corganization_member,asc,updated,,0
,collaborator_and_2Cowner_and_2Corganization_member,desc,created,owner,1
all,,asc,updated,public,1
,,asc,full_name,,0
public,,,,owner,1
,organization_member_and_2Ccollaborator_and_2Cowner,desc,,owner,1
,owner,,,public,1
private,,,updated,private,1
all,,asc,,,0
public,,,full_name,,0
private,collaborator_and_2Corganization_member,,pushed,,0
,,,pushed,public,0
,organization_member_and_2Cowner,,full_name,,0
,,desc,pushed,,0
,,asc,updated,private,0
all,collaborator_and_2Cowner_and_2Corganization_member,asc,,,0
public,,asc,,private,1
,collaborator,,,,0
public,,,updated,all,1
,organization_member_and_2Ccollaborator,desc,,public,1
public,collaborator_and_2Corganization_member,asc,updated,,0
,,desc,created,public,0
,,,,public,0
,owner,desc,created,private,1
public,organization_member,,full_name,owner,1
,owner_and_2Corganization_member,asc,pushed,owner,1
private,,asc,pushed,,0
public,collaborator_and_2Corganization_member,,,,0
private,,asc,,all,1
,collaborator_and_2Corganization_member,,,member,1
public,organization_member_and_2Cowner,asc,,,0
all,collaborator_and_2Cowner_and_2Corganization_member,,pushed,public,1
private,,,,all,1
all,,,,,0
private,,,updated,member,1
public,,,pushed,owner,1
all,owner_and_2Ccollaborator_and_2Corganization_member,asc,,member,1
,owner_and_2Corganization_member_and_2Ccollaborator,asc,,,0
all,,desc,,,0
,owner_and_2Corganization_member,asc,,all,1
,,,updated,private,0
,organization_member_and_2Cowner,,updated,owner,1
,,,pushed,,0
public,,,,,0
private,,,,,0
private,,,,,0
public,organization_member_and_2Ccollaborator,,updated,all,1
,organization_member_and_2Cowner,,,,0
,,desc,,private,0
all,organization_member_and_2Ccollaborator,,,,0
,organization_member,desc,,,0
,,,pushed,private,0
,owner,asc,,member,1
private,organization_member_and_2Ccollaborator_and_2Cowner,desc,updated,public,1
all,,,created,private,1
,collaborator_and_2Corganization_member_and_2Cowner,asc,,all,1
all,,,updated,,0
private,,asc,,all,1
,collaborator_and_2Corganization_member_and_2Cowner,asc,,member,1
all,collaborator_and_2Cowner,asc,created,,0
all,,asc,full_name,,0
,,,,all,0
all,,,,all,1
,collaborator_and_2Cowner,desc,full_name,owner,1
public,,,created,owner,1
,owner_and_2Ccollaborator_and_2Corganization_member,,,all,1
all,,asc,,,0
all,organization_member_and_2Cowner,asc,,private,1
public,organization_member_and_2Ccollaborator_and_2Cowner,desc,,,0
,,desc,pushed,all,0
all,organization_member_and_2Ccollaborator_and_2Cowner,asc,created,,0
,,desc,full_name,public,0
,,,created,all,0
,collaborator_and_2Corganization_member_and_2Cowner,desc,pushed,member,1
,organization_member_and_2Ccollaborator,,full_name,,0
,organization_member_and_2Cowner_and_2Ccollaborator,,,private,1
,,desc,created,public,0
,owner_and_2Ccollaborator_and_2Corganization_member,,,all,1
,,desc,updated,public,0
public,owner,,updated,member,1
all,owner,,,,0
,organization_member,,created,,0
private,,,updated,public,1
private,organization_member,,,private,1
private,,asc,,,0
,owner_and_2Ccollaborator_and_2Corganization_member,,full_name,public,1
,owner_and_2Ccollaborator,asc,,member,1
public,collaborator_and_2Cowner,,pushed,member,1
,organization_member_and_2Cowner_and_2Ccollaborator,asc,created,private,1
,owner,,full_name,private,1
,organization_member_and_2Cowner_and_2Ccollaborator,asc,,private,1
,,asc,,public,0
private,organization_member_and_2Ccollaborator,desc,,private,1
private,,,,private,1
public,,,,public,1
private,,,created,all,1
,,,,,0
private,,,created,all,1
,collaborator_and_2Corganization_member_and_2Cowner,,full_name,public,1
,,asc,updated,owner,0
,,asc,,public,0
private,,desc,,member,1
,organization_member,desc,,,0
public,organization_member,desc,created,member,1
private,collaborator_and_2Cowner,asc,full_name,public,1
all,,,full_name,all,1
private,organization_member_and_2Ccollaborator,asc,,,0
,organization_member_and_2Cowner_and_2Ccollaborator,asc,,private,1
public,,,full_name,owner,1
public,,desc,updated,private,1
private,collaborator_and_2Corganization_member,,created,owner,1
all,,asc,,private,1
all,,desc,pushed,public,1
private,,,,,0
private,organization_member_and_2Ccollaborator_and_2Cowner,asc,,public,1
,owner_and_2Ccollaborator,,,member,1
,organization_member_and_2Cowner,,,owner,1
,,asc,created,,0
all,owner_and_2Corganization_member,desc,created,,0
public,,,,private,1
all,organization_member_and_2Ccollaborator_and_2Cowner,desc,,owner,1
all,collaborator_and_2Corganization_member_and_2Cowner,desc,updated,,0
,,,,public,0
,owner_and_2Corganization_member,,updated,member,1
,,,created,,0
private,,asc,updated,public,1
private,,,,,0
private,,desc,pushed,,0
,,,,all,0
all,collaborator_and_2Corganization_member_and_2Cowner,desc,full_name,,0
,,asc,,,0
,,,pushed,all,0
,owner_and_2Corganization_member,,updated,owner,1
all,owner_and_2Corganization_member,,,private,1
,collaborator_and_2Corganization_member_and_2Cowner,desc,full_name,,0
all,,desc,,private,1
private,,,,all,1
,,desc,full_name,private,0
public,,,,owner,1
all,organization_member_and_2Ccollaborator,asc,,public,1
,organization_member_and_2Ccollaborator,,created,,0
,collaborator_and_2Corganization_member_and_2Cowner,asc,,member,1
,owner_and_2Corganization_member_and_2Ccollaborator,,full_name,owner,1
all,,desc,,member,1
,,,,all,0
all,,desc,,,0
,organization_member_and_2Cowner,,,owner,1
public,collaborator_and_2Corganization_member_and_2Cowner,,pushed,,0
public,owner_and_2Corganization_member_and_2Ccollaborator,,,member,1
all,organization_member_and_2Ccollaborator_and_2Cowner,desc,,,0
,collaborator_and_2Cowner,asc,pushed,owner,1
public,organization_member_and_2Cowner_and_2Ccollaborator,,,private,1
,,desc,,member,0
all,collaborator_and_2Corganization_member,desc,,,0
private,,asc,,member,1
,owner_and_2Corganization_member,asc,,public,1
,collaborator,desc,updated,all,1
,,asc,,private,0
,,,,all,0
,,asc,,private,0
private,,,,private,1
,,asc,updated,member,0
,,asc,,,0
,,asc,full_name,,0
private,organization_member_and_2Cowner_and_2Ccollaborator,desc,updated,,0
private,,desc,created,,0
private,organization_member_and_2Ccollaborator,,created,,0
private,owner,,full_name,owner,1
private,organization_member_and_2Cowner_and_2Ccollaborator,asc,,member,1
all,collaborator_and_2Cowner,,pushed,,0
private,owner_and_2Corganization_member_and_2Ccollaborator,,,,0
private,,,pushed,member,1
,,asc,pushed,public,0
public,,,,,0
all,collaborator,asc,,owner,1
,collaborator_and_2Cowner_and_2Corganization_member,desc,full_name,private,1
,owner_and_2Corganization_member,desc,,,0
private,collaborator_and_2Cowner,,,,0
private,,asc,updated,public,1
all,,desc,,,0
all,organization_member,asc,updated,private,1
public,,desc,,,0
,owner_and_2Ccollaborator,desc,full_name,member,1
all,,asc,pushed,,0
,,asc,,,0
,,asc,,,0
,,,created,,0
,,,,all,0
public,,,created,,0
,owner_and_2Corganization_member,,,member,1
all,,,,,0
,owner_and_2Ccollaborator,,full_name,,0
public,organization_member,asc,full_name,all,1
private,owner_and_2Ccollaborator_and_2Corganization_member,,,,0
public,organization_member_and_2Ccollaborator,,,all,1
all,owner,asc,created,,0
,owner_and_2Ccollaborator,desc,,owner,1
private,,,,,0
,owner,asc,,private,1
private,collaborator_and_2Corganization_member,asc,created,owner,1
public,,desc,,private,1
public,,,,owner,1
public,organization_member_and_2Cowner,,,,0
,,desc,pushed,public,0
private,owner_and_2Ccollaborator_and_2Corganization_member,desc,,,0
private,owner_and_2Ccollaborator,,pushed,all,1
,organization_member_and_2Ccollaborator_and_2Cowner,,created,public,1
,,,,public,0
,owner_and_2Corganization_member_and_2Ccollaborator,,updated,,0
all,collaborator,,updated,private,1
,owner_and_2Ccollaborator,,pushed,private,1
private,,desc,,member,1
,collaborator_and_2Cowner_and_2Corganization_member,,created,all,1
private,owner_and_2Ccollaborator_and_2Corganization_member,asc,created,member,1
,,,pushed,all,0
private,collaborator_and_2Corganization_member,,created,all,1
public,collaborator_and_2Cowner_and_2Corganization_member,desc,,,0
private,,asc,pushed,,0
public,organization_member,,full_name,,0
,organization_member_and_2Ccollaborator,desc,created,owner,1
private,,,,,0
private,organization_member_and_2Cowner_and_2Ccollaborator,,,public,1
all,,desc,,member,1
,owner,,updated,owner,1
all,,,full_name,,0
,,asc,updated,public,0
,,desc,created,owner,0
all,,,,,0
all,owner_and_2Corganization_member,,,,0
,,asc,created,all,0
private,,,,,0
public,organization_member_and_2Ccollaborator,,,private,1
public,,,updated,all,1
,owner_and_2Corganization_member,,created,public,1
all,collaborator_and_2Corganization_member,,updated,,0
all,,desc,,private,1
private,collaborator_and_2Corganization_member_and_2Cowner,asc,updated,,0
private,owner_and_2Corganization_member,desc,created,public,1
private,,,full_name,all,1
,,desc,full_name,public,0
,owner_and_2Corganization_member,,updated,member,1
,,,created,owner,0
,organization_member,,,owner,1
public,organization_member_and_2Cowner_and_2Ccollaborator,asc,created,member,1
,organization_member_and_2Ccollaborator,,pushed,owner,1
,,,,public,0
,,asc,,private,0
all,owner_and_2Corganization_member,,created,,0
,,,pushed,member,0
private,organization_member_and_2Ccollaborator_and_2Cowner,asc,,private,1
public,,asc,,owner,1
public,,asc,created,public,1
,owner_and_2Ccollaborator,,pushed,,0
all,,,updated,,0
,,,,,0
public,,,full_name,,0
,,,pushed,private,0
all,,,full_name,member,1
private,collaborator,desc,,,0
,organization_member,asc,,,0
private,,,created,public,1
,,asc,,,0
private,collaborator_and_2Cowner,,,private,1
all,,desc,created,,0
all,,asc,updated,member,1
,organization_member_and_2Cowner_and_2Ccollaborator,,created,all,1
,,desc,,member,0
,organization_member_and_2Ccollaborator,,,owner,1
,collaborator_and_2Cowner,asc,,owner,1
all,,desc,,,0
private,owner_and_2Corganization_member_and_2Ccollaborator,,,,0
,organization_member,,,all,1
public,organization_member_and_2Cowner,desc,,,0
,organization_member_and_2Cowner,,pushed,,0
,,,pushed,member,0
all,collaborator,desc,,public,1
,,desc,updated,member,0
all,,,pushed,owner,1
all,organization_member_and_2Cowner,desc,,,0
private,organization_member_and_2Cowner_and_2Ccollaborator,asc,,member,1
,,asc,pushed,private,0
all,owner_and_2Ccollaborator_and_2Corganization_member,desc,created,,0
all,organization_member_and_2Ccollaborator_and_2Cowner,desc,,,0
private,,,,public,1
public,owner_and_2Corganization_member_and_2Ccollaborator,,updated,,0
private,organization_member_and_2Ccollaborator,asc,,owner,1
all,collaborator_and_2Corganization_member,,updated,,0
public,,,,owner,1
,organization_member_and_2Ccollaborator,desc,,public,1
,,,,owner,0
public,,desc,,owner,1
,,,,all,0
private,owner_and_2Ccollaborator,,full_name,,0
,,desc,pushed,,0
public,,,updated,public,1
public,,asc,,,0
public,,desc,,all,1
,organization_member_and_2Cowner,asc,full_name,member,1
private,owner,asc,updated,private,1
,,asc,,private,0
private,organization_member_and_2Cowner_and_2Ccollaborator,,,member,1
,owner_and_2Corganization_member,asc,,owner,1
,owner_and_2Corganization_member_and_2Ccollaborator,,pushed,member,1
all,organization_member_and_2Ccollaborator_and_2Cowner,desc,,,0
public,organization_member_and_2Ccollaborator_and_2Cowner,,updated,owner,1
,collaborator_and_2Corganization_member_and_2Cowner,asc,pushed,public,1
,,,,public,0
all,,,,all,1
,,asc,pushed,public,0
private,,,pushed,all,1
private,organization_member_and_2Ccollaborator_and_2Cowner,desc,,member,1
public,organization_member_and_2Ccollaborator,,,,0
,organization_member_and_2Cowner,desc,pushed,,0
,,asc,full_name,,0
,owner_and_2Corganization_member_and_2Ccollaborator,,pushed,owner,1
public,owner_and_2Corganization_member,asc,,,0
,,,,public,0
public,,,,private,1
private,,,,private,1
,collaborator_and_2Corganization_member_and_2Cowner,,,,0
private,,,,private,1
,,,,,0
,owner_and_2Ccollaborator_and_2Corganization_member,asc,,member,1
,owner_and_2Ccollaborator,asc,,member,1
,,,,private,0
public,,,updated,all,1
public,owner,asc,pushed,private,1
,organization_member_and_2Ccollaborator_and_2Cowner,desc,pushed,,0
,organization_member_and_2Cowner,,full_name,,0
,organization_member_and_2Cowner_and_2Ccollaborator,asc,created,,0
,collaborator_and_2Corganization_member_and_2Cowner,,,all,1
private,,,full_name,,0
,,desc,,,0
all,,desc,,,0
,,,,owner,0
public,,,created,,0
all,organization_member,,,all,1
,organization_member_and_2Cowner_and_2Ccollaborator,desc,,,0
private,,,,member,1
,collaborator,,,all,1
,,,full_name,public,0
all,organization_member_and_2Cowner,,,all,1
,,desc,created,,0
,organization_member_and_2Ccollaborator,,updated,,0
,,asc,,member,0
private,,asc,pushed,member,1
public,,asc,updated,public,1
private,,,,private,1
,collaborator_and_2Cowner,,,,0
,,,,,0
,owner,desc,,,0
,owner_and_2Ccollaborator_and_2Corganization_member,desc,updated,owner,1
private,,asc,,,0
,collaborator,asc,,,0
public,organization_member_and_2Cowner_and_2Ccollaborator,asc,pushed,owner,1
private,,,pushed,,0
private,,,,,0
,,,,all,0
,owner_and_2Ccollaborator,asc,,private,1
,organization_member_and_2Cowner_and_2Ccollaborator,desc,,,0
,organization_member_and_2Cowner,,pushed,private,1
,,,,all,0
,,,pushed,all,0
,owner_and_2Ccollaborator,asc,,,0
public,,asc,,,0
public,owner,,,,0
public,,desc,,public,1
,organization_member_and_2Cowner,asc,,,0
,organization_member_and_2Cowner,desc,,public,1
private,collaborator_and_2Corganization_member_and_2Cowner,,full_name,public,1
,collaborator_and_2Corganization_member_and_2Cowner,,,,0
,organization_member_and_2Ccollaborator,,updated,all,1
public,,asc,,all,1
,organization_member,,,,0
private,,,updated,member,1
public,collaborator_and_2Corganization_member,,pushed,,0
public,organization_member_and_2Cowner,desc,created,public,1
private,,,updated,all,1
,collaborator,,,member,1
,,asc,,public,0
public,,,full_name,,0
,,,updated,private,0
,,asc,,all,0
,,desc,,private,0
,organization_member,desc,,owner,1
,organization_member_and_2Ccollaborator,asc,,member,1
public,owner_and_2Ccollaborator,asc,,member,1
public,owner_and_2Ccollaborator,,updated,public,1
,,desc,,owner,0
private,collaborator_and_2Corganization_member_and_2Cowner,desc,,member,1
,owner,,,public,1
,,,full_name,,0
,organization_member_and_2Cowner,,,owner,1
,organization_member_and_2Cowner_and_2Ccollaborator,asc,created,public,1
public,organization_member_and_2Ccollaborator,asc,,,0
,owner_and_2Ccollaborator,desc,,public,1
all,owner_and_2Corganization_member_and_2Ccollaborator,,,public,1
,,asc,,,0
,collaborator_and_2Cowner,,,owner,1
public,,desc,,private,1
private,,desc,created,private,1
all,,,pushed,,0
all,,,full_name,,0
,organization_member,desc,,all,1
,,,pushed,,0
all,collaborator_and_2Corganization_member_and_2Cowner,,,owner,1
public,,,created,member,1
,owner_and_2Corganization_member_and_2Ccollaborator,,full_name,,0
,collaborator_and_2Corganization_member_and_2Cowner,desc,full_name,public,1
,organization_member_and_2Cowner,desc,,owner,1
,organization_member_and_2Cowner_and_2Ccollaborator,,pushed,all,1
private,,,full_name,private,1
private,,,created,,0
all,,,updated,,0
all,,,,public,1
private,,desc,,owner,1
private,organization_member_and_2Ccollaborator_and_2Cowner,asc,,,0
,owner,,,,0
all,,asc,,public,1
,,asc,pushed,private,0
,owner_and_2Corganization_member,asc,,,0
public,organization_member_and_2Ccollaborator_and_2Cowner,desc,created,,0
,,asc,,,0
,,desc,pushed,,0
all,organization_member,,created,,0
public,owner,,full_name,,0
private,,desc,updated,,0
,owner,desc,,,0
all,,,,,0
all,owner_and_2Corganization_member_and_2Ccollaborator,,,,0
all,,,,member,1
,organization_member_and_2Cowner,,,owner,1
,collaborator,,,private,1
,owner_and_2Corganization_member,,,,0
,organization_member_and_2Cowner_and_2Ccollaborator,desc,,all,1
private,,desc,created,member,1
,,asc,,public,0
private,,,,public,1
all,collaborator_and_2Corganization_member_and_2Cowner,desc,pushed,member,1
,collaborator_and_2Cowner,,,all,1
all,organization_member_and_2Cowner_and_2Ccollaborator,asc,,all,1
,collaborator_and_2Corganization_member,asc,,owner,1
public,collaborator_and_2Corganization_member,,pushed,private,1
public,organization_member,asc,full_name,public,1
private,,asc,,public,1
,owner_and_2Corganization_member_and_2Ccollaborator,asc,,all,1
,organization_member_and_2Ccollaborator_and_2Cowner,desc,updated,,0
all,,,updated,,0
all,organization_member_and_2Ccollaborator_and_2Cowner,asc,,,0
all,collaborator_and_2Cowner,desc,full_name,all,1
public,,,,owner,1
all,,,,member,1
,,desc,full_name,,0
private,,asc,full_name,private,1
private,collaborator_and_2Corganization_member_and_2Cowner,asc,,,0
,owner_and_2Corganization_member,asc,updated,owner,1
public,owner_and_2Ccollaborator,asc,,all,1
,collaborator_and_2Corganization_member,desc,full_name,member,1
,,asc,,public,0
private,collaborator_and_2Cowner_and_2Corganization_member,asc,updated,,0
all,organization_member,desc,,,0
private,organization_member_and_2Ccollaborator,asc,,,0
,owner_and_2Ccollaborator,asc,,private,1
,organization_member_and_2Ccollaborator,,full_name,owner,1
all,,asc,,,0
public,owner_and_2Ccollaborator,,created,public,1
private,,,,private,1
public,,,full_name,,0
private,collaborator_and_2Cowner_and_2Corganization_member,,,,0
,,desc,,private,0
,,,,,0
private,,,created,,0
,,asc,pushed,,0
public,owner_and_2Corganization_member,desc,updated,,0
,owner_and_2Ccollaborator_and_2Corganization_member,asc,updated,owner,1
,organization_member_and_2Cowner_and_2Ccollaborator,asc,,public,1
private,,asc,full_name,all,1
,,,,member,0
,,asc,created,public,0
public,,asc,,member,1
,,,pushed,all,0
private,organization_member_and_2Cowner_and_2Ccollaborator,,created,member,1
private,,,created,,0
,owner_and_2Ccollaborator_and_2Corganization_member,asc,,private,1
all,owner,,,member,1
private,owner_and_2Corganization_member_and_2Ccollaborator,desc,,,0
,collaborator_and_2Corganization_member,desc,,owner,1
private,,,full_name,,0
,,,created,all,0
public,,asc,,,0
,organization_member,,full_name,owner,1
all,,,,member,1
private,owner,asc,,,0
private,collaborator_and_2Corganization_member,asc,updated,,0
,owner_and_2Ccollaborator_and_2Corganization_member,asc,,private,1
,owner_and_2Corganization_member_and_2Ccollaborator,desc,updated,owner,1
,organization_member,asc,,private,1
private,,desc,updated,private,1
public,collaborator_and_2Corganization_member_and_2Cowner,asc,updated,,0
all,owner,,,,0
public,owner,desc,updated,,0
,,,full_name,member,0
public,,asc,,private,1
public,,,,public,1
,,desc,updated,member,0
,collaborator_and_2Corganization_member_and_2Cowner,asc,,,0
all,organization_member_and_2Cowner,,updated,public,1
public,,,pushed,all,1
private,,asc,pushed,,0
,organization_member_and_2Ccollaborator,desc,pushed,private,1
public,,,full_name,,0
all,,,updated,private,1
public,,,,owner,1
public,owner_and_2Ccollaborator,desc,updated,private,1
,collaborator,,created,,0
private,,,updated,public,1
,,asc,,public,0
all,owner,,created,all,1
,,,updated,all,0
all,owner_and_2Ccollaborator,desc,full_name,,0
,,,pushed,owner,0
all,collaborator_and_2Cowner,,,all,1
public,,desc,,owner,1
,,,created,,0
,organization_member,,,,0
all,,,,member,1
private,,asc,,owner,1
,owner_and_2Corganization_member_and_2Ccollaborator,desc,pushed,all,1
,owner_and_2Ccollaborator,,full_name,,0
all,,,pushed,member,1
,,asc,,member,0
private,organization_member_and_2Cowner,desc,,,0
,collaborator_and_2Cowner,desc,updated,member,1
,organization_member_and_2Ccollaborator,asc,,,0
public,,,created,public,1
public,collaborator_and_2Cowner_and_2Corganization_member,desc,,member,1
,,,updated,member,0
,owner,desc,created,owner,1
,,,pushed,,0
,,desc,pushed,,0
,,,,private,0
private,owner_and_2Corganization_member,desc,,,0
all,,asc,full_name,,0
,,asc,pushed,,0
public,,desc,,all,1
private,owner_and_2Ccollaborator,,full_name,,0
,,,created,member,0
public,collaborator_and_2Cowner,asc,,,0
,,,,public,0
,collaborator_and_2Cowner,asc,created,owner,1
public,,,created,,0
,,asc,full_name,,0
,collaborator_and_2Cowner_and_2Corganization_member,asc,updated,,0
,,desc,updated,public,0
public,organization_member_and_2Cowner,,created,private,1
all,collaborator_and_2Cowner,,,,0
,organization_member_and_2Cowner_and_2Ccollaborator,,,,0
private,,,,,0
,,asc,pushed,member,0
,,,,,0
,,desc,pushed,,0
,owner_and_2Corganization_member_and_2Ccollaborator,,,,0
all,organization_member_and_2Cowner_and_2Ccollaborator,,pushed,,0
,,,created,,0
all,collaborator_and_2Cowner_and_2Corganization_member,,created,member,1
all,,,full_name,,0
,,,,private,0
private,owner,asc,,,0
,,desc,,all,0
,,,,,0
,collaborator,,full_name,public,1
private,,,updated,public,1
public,,asc,updated,public,1
,,asc,updated,private,0
,collaborator,,,owner,1
public,owner,asc,full_name,,0
,,,updated,all,0
public,,,created,private,1
,,,updated,all,0
,collaborator_and_2Cowner,asc,created,public,1
private,,desc,updated,all,1
,,desc,pushed,all,0
all,,,pushed,public,1
,,,,private,0
public,,,created,owner,1
all,,asc,,,0
public,organization_member_and_2Ccollaborator,asc,updated,,0
private,organization_member_and_2Cowner_and_2Ccollaborator,,pushed,,0
,,asc,,owner,0
private,,desc,,private,1
,owner_and_2Corganization_member,desc,,,0
,,,,public,0
all,organization_member_and_2Cowner_and_2Ccollaborator,,,private,1
,,desc,full_name,owner,0
,,,full_name,owner,0
all,collaborator_and_2Cowner_and_2Corganization_member,,,,0
,collaborator,,,private,1
all,,,pushed,public,1
all,collaborator_and_2Corganization_member_and_2Cowner,,,,0
public,,desc,updated,public,1
,,asc,updated,all,0
private,,,full_name,member,1
,owner,,created,all,1
private,collaborator,desc,full_name,,0
all,,,created,owner,1
all,,,pushed,,0
,,asc,,private,0
private,owner_and_2Corganization_member,desc,,,0
,,,created,all,0
all,,,pushed,,0
,organization_member,,pushed,all,1
,organization_member_and_2Cowner_and_2Ccollaborator,desc,,all,1
,collaborator_and_2Corganization_member_and_2Cowner,,,,0
,organization_member,,,public,1
all,organization_member_and_2Cowner_and_2Ccollaborator,,created,,0
public,collaborator_and_2Corganization_member,,,,0
,,desc,,member,0
,owner_and_2Corganization_member,desc,,,0
,collaborator,,updated,owner,1
all,collaborator_and_2Corganization_member,desc,pushed,,0
,owner_and_2Ccollaborator_and_2Corganization_member,desc,updated,all,1
,owner,desc,pushed,,0
,collaborator,,updated,member,1
,organization_member_and_2Ccollaborator,desc,updated,private,1
,owner_and_2Ccollaborator,,updated,,0
,,asc,,all,0
,organization_member_and_2Cowner,,,member,1
,,desc,,,0
public,,,created,,0
public,organization_member_and_2Ccollaborator_and_2Cowner,,,,0
,collaborator_and_2Cowner_and_2Corganization_member,desc,updated,member,1
,,asc,full_name,public,0
all,,asc,pushed,,0
private,,desc,,private,1
private,,asc,full_name,,0
,organization_member_and_2Cowner,desc,pushed,private,1
,owner,desc,full_name,owner,1
all,,,full_name,all,1
,owner_and_2Ccollaborator,,created,public,1
all,,desc,,private,1
all,,desc,,owner,1
,owner_and_2Ccollaborator,,,,0
public,organization_member_and_2Ccollaborator_and_2Cowner,,full_name,,0
all,collaborator_and_2Cowner,asc,full_name,owner,1
private,,,,owner,1
,,,pushed,,0
private,,,updated,owner,1
,owner_and_2Corganization_member_and_2Ccollaborator,desc,updated,public,1
public,organization_member,asc,,owner,1
,,,,private,0
,owner,desc,updated,owner,1
private,,asc,,,0
private,,desc,created,,0
,organization_member_and_2Ccollaborator,,created,public,1
,,,,,0
,,desc,,,0
private,,,full_name,,0
public,owner_and_2Corganization_member,asc,updated,,0
,,,,,0
,owner_and_2Corganization_member,asc,,,0
private,,asc,full_name,,0
all,collaborator_and_2Cowner_and_2Corganization_member,desc,updated,owner,1
,organization_member_and_2Cowner,asc,,public,1
private,collaborator,,,owner,1
private,,,full_name,public,1
,collaborator,asc,pushed,,0
,owner_and_2Ccollaborator,desc,full_name,member,1
public,organization_member_and_2Ccollaborator_and_2Cowner,asc,,,0
,,,,owner,0
all,owner_and_2Corganization_member,asc,pushed,,0
,organization_member_and_2Cowner,desc,pushed,public,1
private,,asc,created,,0
,,asc,,member,0
,,,,,0
private,collaborator_and_2Corganization_member,,updated,,0
,organization_member_and_2Cowner,,,member,1
,,asc,created,private,0
public,,desc,,,0
,,,,public,0
,,asc,created,member,0
,,,pushed,member,0
,,desc,full_name,owner,0
private,,,,member,1
private,,desc,,private,1
,,,,private,0
,owner_and_2Ccollaborator_and_2Corganization_member,desc,,,0
,collaborator_and_2Corganization_member_and_2Cowner,,,all,1
,,,,public,0
,,desc,created,public,0
public,,,,private,1
,owner,desc,,,0
private,organization_member,desc,updated,,0
all,,,,,0
,organization_member_and_2Cowner_and_2Ccollaborator,desc,,,0
all,owner_and_2Corganization_member,,pushed,,0
private,,desc,created,owner,1
,collaborator_and_2Cowner_and_2Corganization_member,asc,pushed,,0
,,desc,full_name,public,0
public,owner,,,owner,1
,collaborator,,,owner,1
,organization_member_and_2Ccollaborator,,,private,1
,collaborator_and_2Cowner_and_2Corganization_member,,full_name,,0
,,,updated,private,0
public,,desc,updated,private,1
private,owner_and_2Corganization_member,,full_name,,0
,,,,public,0
private,,,,,0
,owner_and_2Corganization_member_and_2Ccollaborator,asc,full_name,all,1
,organization_member,,created,,0
all,collaborator_and_2Corganization_member_and_2Cowner,,,,0
,owner_and_2Ccollaborator_and_2Corganization_member,asc,created,private,1
,owner_and_2Ccollaborator_and_2Corganization_member,,,owner,1
,,desc,created,,0
all,owner,,,member,1
,,,updated,all,0
,,desc,,member,0
public,collaborator_and_2Corganization_member,desc,,,0
,,,created,all,0
,owner_and_2Ccollaborator,,,public,1
private,,,,owner,1
,collaborator_and_2Cowner,,,owner,1
,owner_and_2Ccollaborator,desc,,,0
public,organization_member_and_2Cowner,,,private,1
private,owner_and_2Corganization_member,asc,,owner,1
private,,asc,full_name,member,1
all,,desc,full_name,,0
public,,,created,all,1
,,,full_name,private,0
all,,asc,,,0
private,owner_and_2Ccollaborator,asc,pushed,,0
public,,desc,,,0
,collaborator_and_2Corganization_member,,,member,1
all,organization_member_and_2Ccollaborator,,full_name,,0
public,,,,private,1
public,,desc,pushed,all,1
,organization_member_and_2Ccollaborator_and_2Cowner,,pushed,private,1
,,,,,0
,collaborator_and_2Corganization_member,asc,,private,1
private,organization_member_and_2Ccollaborator_and_2Cowner,desc,full_name,,0
,,,full_name,owner,0
,organization_member_and_2Cowner,,,all,1
private,,,,public,1
all,,desc,,all,1
all,organization_member_and_2Cowner,,updated,owner,1
,,,,all,0
,,,created,owner,0
all,,desc,pushed,all,1
,,,updated,,0
,owner_and_2Ccollaborator_and_2Corganization_member,,,private,1
,,asc,pushed,owner,0
public,,asc,,,0
private,owner_and_2Corganization_member,desc,pushed,member,1
public,,asc,,public,1
,organization_member_and_2Cowner_and_2Ccollaborator,desc,,owner,1
private,,asc,created,all,1
,,,,member,0
,organization_member_and_2Ccollaborator_and_2Cowner,,pushed,member,1
,,desc,pushed,member,0
